<?xml version="1.0" encoding="UTF-8" standalone="no"?>
<svg
   xmlns:i="http://ns.adobe.com/AdobeIllustrator/10.0/"
   xmlns:dc="http://purl.org/dc/elements/1.1/"
   xmlns:cc="http://creativecommons.org/ns#"
   xmlns:rdf="http://www.w3.org/1999/02/22-rdf-syntax-ns#"
   xmlns:svg="http://www.w3.org/2000/svg"
   xmlns="http://www.w3.org/2000/svg"
   xmlns:sodipodi="http://sodipodi.sourceforge.net/DTD/sodipodi-0.dtd"
   xmlns:inkscape="http://www.inkscape.org/namespaces/inkscape"
   width="1010"
   height="295.246"
   viewBox="0 0 267.22916 78.117173"
   version="1.1"
   id="svg973"
   inkscape:version="1.0.1 (3bc2e813f5, 2020-09-07)"
   sodipodi:docname="mdcoinlogomini.svg">
  <defs
     id="defs967">
    <filter
       inkscape:collect="always"
       style="color-interpolation-filters:sRGB"
       id="filter3270"
       x="-6.7499997e-05"
       width="1.0001349"
       y="-6.7499997e-05"
       height="1.0001349">
      <feGaussianBlur
         inkscape:collect="always"
         stdDeviation="0.001125"
         id="feGaussianBlur3272" />
    </filter>
  </defs>
  <sodipodi:namedview
     id="base"
     pagecolor="#ffffff"
     bordercolor="#666666"
     borderopacity="1.0"
     inkscape:pageopacity="0.0"
     inkscape:pageshadow="2"
     inkscape:zoom="0.24748738"
     inkscape:cx="1027.4431"
     inkscape:cy="482.01962"
     inkscape:document-units="mm"
     inkscape:current-layer="layer1"
     inkscape:document-rotation="0"
     showgrid="false"
     units="px"
     inkscape:window-width="1600"
     inkscape:window-height="836"
     inkscape:window-x="0"
     inkscape:window-y="27"
     inkscape:window-maximized="1" />
  <metadata
     id="metadata970">
    <rdf:RDF>
      <cc:Work
         rdf:about="">
        <dc:format>image/svg+xml</dc:format>
        <dc:type
           rdf:resource="http://purl.org/dc/dcmitype/StillImage" />
        <dc:title />
      </cc:Work>
    </rdf:RDF>
  </metadata>
  <g
     inkscape:label="Layer 1"
     inkscape:groupmode="layer"
     id="layer1">
    <g
       id="g1253">
      <g
         id="g1117">
        <g
           aria-label="MDCO  IN"
           transform="scale(0.95132969,1.0511603)"
           id="text8338"
           style="font-style:normal;font-variant:normal;font-weight:normal;font-stretch:normal;font-size:14.7508px;line-height:1.25;font-family:Monoton;-inkscape-font-specification:Monoton;letter-spacing:0px;word-spacing:0px;fill:#241c1c;fill-opacity:1;stroke:none;stroke-width:0.368772">
          <path
             d="m 124.08934,22.85827 1.24461,-2.350928 v 12.79181 h -1.24461 z m 2.48922,-4.771 1.2446,-2.350927 v 17.562809 h -1.2446 z m 2.48921,-4.701854 1.24461,-2.368214 v 22.28195 h -1.24461 z m -8.34925,8.885122 -0.70873,-1.296468 8.57397,-16.3009143 h 1.40018 z m -1.43475,-2.713938 -0.72602,-1.313754 7.19107,-13.5696903 h 1.41747 z m -8.33197,1.089032 1.24461,2.350927 v 10.302593 h -1.24461 z m -2.48921,-4.736427 1.24461,2.350927 v 15.03902 h -1.24461 z m -2.48922,-4.736427 1.24461,2.368214 v 19.75816 h -1.24461 z m 10.06059,14.658723 h -1.40019 L 104.72876,7.0413692 V 33.299152 h -1.24461 V 4.6731557 h 1.40019 z m 2.81765,0 h -1.41747 L 106.30181,4.6731557 h 1.41747 z M 131.55699,7.0413692 121.65198,25.831501 h -1.41747 L 109.11946,4.6731557 h 1.40019 l 10.44088,19.8445923 10.4236,-19.8445923 h 1.41747 V 33.299152 h -1.24461 z"
             style="font-style:normal;font-variant:normal;font-weight:normal;font-stretch:normal;font-size:35.4022px;font-family:Monoton;-inkscape-font-specification:Monoton;fill:#241c1c;fill-opacity:1;stroke-width:0.368772"
             id="path1092" />
          <path
             d="M 143.55363,25.831501 V 12.140807 q 0,0 8.48754,0 2.05706,0 3.52639,2.022489 1.48662,2.005203 1.48662,4.822858 0,2.834942 -1.48662,4.840144 -1.46933,2.005203 -3.52639,2.005203 z m 1.24461,-1.244608 h 7.24293 q 1.53848,0 2.62751,-1.642192 1.10632,-1.642192 1.10632,-3.958547 0,-2.333641 -1.10632,-3.958547 -1.08903,-1.642191 -2.62751,-1.642191 h -7.24293 z m -2.48921,2.489217 h 9.73214 q 2.57565,0 4.42528,-2.368214 1.86691,-2.3855 1.86691,-5.721742 0,-2.195351 -0.86431,-4.062264 -0.84703,-1.866913 -2.29907,-2.938659 -1.43476,-1.089033 -3.12881,-1.089033 h -9.73214 z m -1.24461,1.244608 V 9.6515899 h 10.97675 q 2.02249,0 3.7684,1.2446081 1.74591,1.244609 2.7658,3.405388 1.03717,2.143492 1.03717,4.684568 0,2.52379 -1.03717,4.684568 -1.01989,2.160779 -2.7658,3.405388 -1.74591,1.244608 -3.7684,1.244608 z m -1.24461,1.244609 h 12.22136 q 2.36822,0 4.3907,-1.417471 2.03978,-1.417471 3.24982,-3.854829 1.21003,-2.437359 1.21003,-5.306873 0,-2.852228 -1.21003,-5.289586 -1.21004,-2.454645 -3.24982,-3.8721158 -2.03977,-1.4174709 -4.3907,-1.4174709 h -12.22136 z m -1.24461,1.244608 V 7.1623728 h 13.46597 q 2.69665,0 5.0303,1.5903331 2.33364,1.5730471 3.71653,4.3042711 1.3829,2.731225 1.3829,5.929177 0,3.197953 -1.3829,5.929177 -1.38289,2.731224 -3.71653,4.321557 -2.33365,1.573047 -5.0303,1.573047 z m -1.24461,1.244609 h 14.71058 q 2.2645,0 4.37342,-1.037174 2.10892,-1.037174 3.64739,-2.783083 1.53848,-1.745909 2.45465,-4.165981 0.93345,-2.437359 0.93345,-5.082152 0,-2.644793 -0.93345,-5.064865 -0.91617,-2.420073 -2.45465,-4.1659817 -1.53847,-1.7631955 -3.64739,-2.8003693 -2.10892,-1.0371738 -4.37342,-1.0371738 h -14.71058 z m 14.71058,1.244608 H 136.08598 V 4.6731557 h 15.95519 q 3.37082,0 6.29219,1.9187715 2.92137,1.9187715 4.65,5.2204418 1.74591,3.30167 1.74591,7.173785 0,2.904087 -1.03718,5.566166 -1.01989,2.644793 -2.73122,4.563565 -1.71134,1.918771 -4.06227,3.059662 -2.33364,1.123605 -4.85743,1.123605 z"
             style="font-style:normal;font-variant:normal;font-weight:normal;font-stretch:normal;font-size:35.4022px;font-family:Monoton;-inkscape-font-specification:Monoton;fill:#241c1c;fill-opacity:1;stroke-width:0.368772"
             id="path1094" />
          <path
             d="m 189.06828,14.457162 -1.01989,0.674163 q -0.93346,-1.382899 -2.43736,-2.178065 -1.48661,-0.812453 -3.23252,-0.812453 -2.83494,0 -4.84015,2.005203 -2.0052,2.005202 -2.0052,4.840144 0,2.834942 2.0052,4.840144 2.00521,2.005203 4.84015,2.005203 1.74591,0 3.23252,-0.812453 1.5039,-0.812453 2.43736,-2.195351 l 1.0026,0.726022 q -1.10632,1.624905 -2.86951,2.575648 -1.7632,0.950743 -3.80297,0.950743 -1.6422,0 -3.1461,-0.639591 -1.48661,-0.63959 -2.57565,-1.728623 -1.08903,-1.089032 -1.72862,-2.575648 -0.63959,-1.503902 -0.63959,-3.146094 0,-1.642192 0.63959,-3.128808 0.63959,-1.503902 1.72862,-2.592934 1.08904,-1.089033 2.57565,-1.728623 1.5039,-0.639591 3.1461,-0.639591 2.05706,0 3.82025,0.968029 1.7632,0.950743 2.86952,2.592935 z m 2.05706,-1.417471 -1.03717,0.674163 q -1.27919,-1.866913 -3.31896,-2.955945 -2.02249,-1.1063191 -4.3907,-1.1063191 -2.54108,0 -4.68457,1.2618951 -2.14349,1.244608 -3.40539,3.388101 -1.24461,2.143492 -1.24461,4.684568 0,2.541076 1.24461,4.684568 1.2619,2.143493 3.40539,3.405388 2.14349,1.244608 4.68457,1.244608 2.36821,0 4.40799,-1.106319 2.03977,-1.106318 3.31895,-2.990517 l 1.01989,0.708735 q -1.45204,2.143493 -3.7684,3.388101 -2.29907,1.244609 -4.97843,1.244609 -2.86952,0 -5.30688,-1.417471 -2.43735,-1.417471 -3.85483,-3.854829 -1.41747,-2.437359 -1.41747,-5.306873 0,-2.869514 1.41747,-5.306873 1.41748,-2.437358 3.85483,-3.8548288 2.43736,-1.4174709 5.30688,-1.4174709 2.67936,0 4.97843,1.2446086 2.31636,1.2446081 3.7684,3.3881011 z m 2.07435,-1.382898 -1.03718,0.674163 q -1.6249,-2.3855002 -4.21784,-3.7683986 -2.57565,-1.4001846 -5.56616,-1.4001846 -2.40279,0 -4.59814,0.9334564 -2.19535,0.9334564 -3.78568,2.5237898 -1.57305,1.573047 -2.50651,3.768398 -0.93345,2.195351 -0.93345,4.598137 0,2.402786 0.93345,4.598137 0.93346,2.195351 2.50651,3.785685 1.59033,1.573046 3.78568,2.506503 2.19535,0.933456 4.59814,0.933456 3.0078,0 5.58345,-1.400184 2.57565,-1.400185 4.20055,-3.785685 l 1.0026,0.743308 q -1.79776,2.627507 -4.64999,4.165982 -2.83494,1.521188 -6.13661,1.521188 -3.54368,0 -6.55148,-1.745909 -3.00781,-1.763196 -4.771,-4.771 -1.74591,-3.007804 -1.74591,-6.551481 0,-3.543677 1.74591,-6.551481 1.76319,-3.0078041 4.771,-4.7537133 3.0078,-1.7631955 6.55148,-1.7631955 3.31895,0 6.17118,1.5557607 2.85223,1.5384745 4.65,4.1832681 z m 2.03977,-1.417471 -1.03717,0.674163 q -1.97063,-2.8868007 -5.09944,-4.563565 -3.11152,-1.6767643 -6.72434,-1.6767643 -2.90409,0 -5.56617,1.1408912 -2.64479,1.1236049 -4.56356,3.0423764 -1.91878,1.9187717 -3.05967,4.5808507 -1.1236,2.644793 -1.1236,5.54888 0,2.904087 1.1236,5.566166 1.14089,2.644793 3.05967,4.563565 1.91877,1.918771 4.56356,3.059662 2.66208,1.123605 5.56617,1.123605 3.61282,0 6.74163,-1.69405 3.1288,-1.694051 5.09943,-4.580851 l 1.00261,0.760594 q -2.1435,3.111521 -5.5316,4.943862 -3.3881,1.815054 -7.31207,1.815054 -3.16338,0 -6.05018,-1.244609 -2.86952,-1.227322 -4.96115,-3.30167 -2.07435,-2.091633 -3.31896,-4.961148 -1.22732,-2.8868 -1.22732,-6.05018 0,-3.16338 1.22732,-6.032894 1.24461,-2.886801 3.31896,-4.9611482 2.09163,-2.0916338 4.96115,-3.3189561 2.8868,-1.2446086 6.05018,-1.2446086 3.94126,0 7.32936,1.8323404 3.3881,1.8323404 5.53159,4.9784345 z"
             style="font-style:normal;font-variant:normal;font-weight:normal;font-stretch:normal;font-size:35.4022px;font-family:Monoton;-inkscape-font-specification:Monoton;fill:#241c1c;fill-opacity:1;stroke-width:0.368772"
             id="path1096" />
          <path
             d="m 207.70283,14.14601 q -2.0052,2.005202 -2.0052,4.840144 0,2.834942 2.0052,4.840144 2.00521,2.005203 4.84015,2.005203 2.83494,0 4.84014,-2.005203 2.0052,-2.005202 2.0052,-4.840144 0,-2.834942 -2.0052,-4.840144 -2.0052,-2.005203 -4.84014,-2.005203 -2.83494,0 -4.84015,2.005203 z m -2.61022,7.986238 q -0.63959,-1.503902 -0.63959,-3.146094 0,-1.642192 0.63959,-3.128808 0.63959,-1.503902 1.72863,-2.592934 1.08903,-1.089033 2.57564,-1.728623 1.50391,-0.639591 3.1461,-0.639591 1.64219,0 3.1288,0.639591 1.50391,0.63959 2.59294,1.728623 1.08903,1.089032 1.72862,2.592934 0.63959,1.486616 0.63959,3.128808 0,1.642192 -0.63959,3.146094 -0.63959,1.486616 -1.72862,2.575648 -1.08903,1.089033 -2.59294,1.728623 -1.48661,0.639591 -3.1288,0.639591 -1.64219,0 -3.1461,-0.639591 -1.48661,-0.63959 -2.57564,-1.728623 -1.08904,-1.089032 -1.72863,-2.575648 z m -0.63959,-7.830662 q -1.24461,2.143492 -1.24461,4.684568 0,2.541076 1.24461,4.684568 1.2619,2.143493 3.40539,3.405388 2.14349,1.244608 4.68457,1.244608 2.54107,0 4.68457,-1.244608 2.14349,-1.261895 3.3881,-3.405388 1.26189,-2.143492 1.26189,-4.684568 0,-2.541076 -1.26189,-4.684568 -1.24461,-2.143493 -3.3881,-3.388101 -2.1435,-1.2618951 -4.68457,-1.2618951 -2.54108,0 -4.68457,1.2618951 -2.14349,1.244608 -3.40539,3.388101 z m -1.07174,9.991441 q -1.41748,-2.437359 -1.41748,-5.306873 0,-2.869514 1.41748,-5.306873 1.41747,-2.437358 3.85482,-3.8548288 2.43736,-1.4174709 5.30688,-1.4174709 2.86951,0 5.30687,1.4174709 2.43736,1.4174708 3.85483,3.8548288 1.41747,2.437359 1.41747,5.306873 0,2.869514 -1.41747,5.306873 -1.41747,2.437358 -3.85483,3.854829 -2.43736,1.417471 -5.30687,1.417471 -2.86952,0 -5.30688,-1.417471 -2.43735,-1.417471 -3.85482,-3.854829 z m -1.72863,-9.90501 q -0.93345,2.195351 -0.93345,4.598137 0,2.402786 0.93345,4.598137 0.93346,2.195351 2.50651,3.785685 1.59033,1.573046 3.78568,2.506503 2.19535,0.933456 4.59814,0.933456 2.40278,0 4.59813,-0.933456 2.19536,-0.933457 3.7684,-2.506503 1.59034,-1.590334 2.52379,-3.785685 0.93346,-2.195351 0.93346,-4.598137 0,-2.402786 -0.93346,-4.598137 -0.93345,-2.195351 -2.52379,-3.768398 -1.57304,-1.5903334 -3.7684,-2.5237898 -2.19535,-0.9334564 -4.59813,-0.9334564 -2.40279,0 -4.59814,0.9334564 -2.19535,0.9334564 -3.78568,2.5237898 -1.57305,1.573047 -2.50651,3.768398 z m -0.43215,11.149618 q -1.74591,-3.007804 -1.74591,-6.551481 0,-3.543677 1.74591,-6.551481 1.76319,-3.0078041 4.771,-4.7537133 3.0078,-1.7631955 6.55148,-1.7631955 3.54367,0 6.55148,1.7631955 3.0078,1.7459092 4.75371,4.7537133 1.7632,3.007804 1.7632,6.551481 0,3.543677 -1.7632,6.551481 -1.74591,3.007804 -4.75371,4.771 -3.00781,1.745909 -6.55148,1.745909 -3.54368,0 -6.55148,-1.745909 -3.00781,-1.763196 -4.771,-4.771 z m -1.86692,-12.100361 q -1.1236,2.644793 -1.1236,5.54888 0,2.904087 1.1236,5.566166 1.1409,2.644793 3.05967,4.563565 1.91877,1.918771 4.56356,3.059662 2.66208,1.123605 5.56617,1.123605 2.90408,0 5.54888,-1.123605 2.66208,-1.140891 4.58085,-3.059662 1.91877,-1.918772 3.04237,-4.563565 1.1409,-2.662079 1.1409,-5.566166 0,-2.904087 -1.1409,-5.54888 -1.1236,-2.662079 -3.04237,-4.5808507 -1.91877,-1.9187715 -4.58085,-3.0423764 -2.6448,-1.1408912 -5.54888,-1.1408912 -2.90409,0 -5.56617,1.1408912 -2.64479,1.1236049 -4.56356,3.0423764 -1.91877,1.9187717 -3.05967,4.5808507 z m -1.14089,11.59906 q -1.22732,-2.8868 -1.22732,-6.05018 0,-3.16338 1.22732,-6.032894 1.24461,-2.886801 3.31896,-4.9611482 2.09163,-2.0916338 4.96115,-3.3189561 2.8868,-1.2446086 6.05018,-1.2446086 3.16338,0 6.03289,1.2446086 2.8868,1.2273223 4.96115,3.3189561 2.09163,2.0743472 3.31896,4.9611482 1.2446,2.869514 1.2446,6.032894 0,3.16338 -1.2446,6.05018 -1.22733,2.869515 -3.31896,4.961148 -2.07435,2.074348 -4.96115,3.30167 -2.86951,1.244609 -6.03289,1.244609 -3.16338,0 -6.05018,-1.244609 -2.86952,-1.227322 -4.96115,-3.30167 -2.07435,-2.091633 -3.31896,-4.961148 z"
             style="font-style:normal;font-variant:normal;font-weight:normal;font-stretch:normal;font-size:35.4022px;font-family:Monoton;-inkscape-font-specification:Monoton;fill:#241c1c;fill-opacity:1;stroke-width:0.368772"
             id="path1098" />
          <path
             d="m 245.81898,4.6731557 h 1.2446 V 33.299152 h -1.2446 z m -2.48922,0 h 1.24461 V 33.299152 h -1.24461 z m -2.48922,0 h 1.24461 V 33.299152 h -1.24461 z m -2.48921,0 h 1.2446 V 33.299152 h -1.2446 z"
             style="font-style:normal;font-variant:normal;font-weight:normal;font-stretch:normal;font-size:35.4022px;font-family:Monoton;-inkscape-font-specification:Monoton;fill:#241c1c;fill-opacity:1;stroke-width:0.368772"
             id="path1100" />
          <path
             d="m 270.67657,19.522027 -1.2446,-2.057061 V 4.6731557 h 1.2446 z m 2.48922,4.07955 -1.24461,-2.091633 V 4.6731557 h 1.24461 z m 2.48922,4.131409 -1.24461,-2.10892 V 4.6731557 h 1.24461 z m -17.83939,-9.282705 1.24461,2.057061 v 12.79181 h -1.24461 z m -2.48922,-4.07955 1.24461,2.091633 v 16.836788 h -1.24461 z m -2.48921,-4.131409 1.2446,2.10892 v 20.95091 h -1.2446 z m 0.43215,-5.5661663 h 1.45204 l 17.59739,28.6259963 h -1.45205 z m 2.93866,0 h 1.46933 l 17.5801,28.6259963 h -1.48662 z m 2.92137,0 h 1.45205 l 16.3182,26.6035073 V 4.6731557 h 1.24461 V 33.299152 q 0,0 -1.46933,0 z m -7.53679,2.0224889 V 33.299152 h -1.24461 V 4.6731557 q 0,0 1.48661,0 l 17.54553,28.6259963 h -1.43476 z"
             style="font-style:normal;font-variant:normal;font-weight:normal;font-stretch:normal;font-size:35.4022px;font-family:Monoton;-inkscape-font-specification:Monoton;fill:#241c1c;fill-opacity:1;stroke-width:0.368772"
             id="path1102" />
        </g>
        <g
           aria-label="2021"
           transform="scale(0.95132969,1.0511603)"
           id="text8342"
           style="font-style:normal;font-variant:normal;font-weight:normal;font-stretch:normal;font-size:14.7508px;line-height:1.25;font-family:Monoton;-inkscape-font-specification:Monoton;letter-spacing:0px;word-spacing:0px;fill:#241c1c;fill-opacity:1;stroke:none;stroke-width:0.368772">
          <path
             d="m 102.39809,66.833455 v -1.244608 h 16.87136 v 1.244608 z m 0,2.489218 v -1.244609 h 16.87136 v 1.244609 z m 0,2.489217 v -1.244609 h 16.87136 v 1.244609 z m 1.91877,-6.914492 h -1.45204 q 1.21003,-1.642192 2.38549,-3.215239 1.17547,-1.573047 1.95335,-2.610221 0.79517,-1.05446 1.53847,-2.057061 0.74331,-1.002601 1.19275,-1.60762 0.46673,-0.605018 0.8816,-1.175463 0.41487,-0.570446 0.62231,-0.881598 0.20743,-0.328438 0.36301,-0.622304 0.17286,-0.293866 0.22472,-0.466728 0.0519,-0.190149 0.0519,-0.363011 0,-0.795167 -0.65688,-1.019888 -0.65688,-0.224721 -2.31636,-0.224721 -2.69665,0 -5.3933,0.708736 l -0.25929,-1.19275 q 0.43215,-0.190149 2.17806,-0.484015 1.7632,-0.311152 3.3881,-0.311152 0.98532,0 1.71134,0.121004 0.72602,0.103717 1.31375,0.380297 0.60502,0.259293 0.91617,0.77788 0.31116,0.501301 0.31116,1.244609 0,0.743308 -0.7606,1.901485 -0.76059,1.158178 -3.90669,5.358731 -2.55836,3.405388 -4.28698,5.739029 z m 2.81765,0 h -1.45204 q 6.44776,-8.677688 7.1565,-9.697575 1.45204,-2.074348 1.62491,-2.955946 0.0519,-0.242007 0.0519,-0.518586 0,-3.57825 -5.42787,-3.57825 -1.65948,0 -3.37082,0.293866 -1.71133,0.293866 -2.5065,0.587732 l -0.24201,-1.19275 q 2.95595,-0.91617 6.13661,-0.91617 1.10632,0 2.03978,0.155576 0.95074,0.13829 1.81505,0.484014 0.86431,0.345725 1.46933,0.898884 0.60502,0.535873 0.95075,1.365612 0.36301,0.829739 0.36301,1.901486 0,1.106318 -1.08904,2.783083 -1.08903,1.676764 -6.5169,9.023412 -0.65688,0.881597 -1.00261,1.365612 z m 2.8868,0 h -1.45204 q 5.89461,-8.055383 7.1565,-10.026014 1.26189,-1.987916 1.26189,-3.318956 0,-1.624905 -0.63959,-2.800369 -0.6223,-1.175464 -1.76319,-1.83234 -1.12361,-0.656877 -2.48922,-0.950743 -1.34832,-0.293866 -3.0078,-0.293866 -3.19795,0 -6.37862,0.968029 l -0.25929,-1.261895 q 3.40538,-1.002601 6.58605,-1.002601 1.55576,0 2.8868,0.224721 1.33104,0.224721 2.5065,0.760594 1.19275,0.518587 2.00521,1.33104 0.82973,0.812452 1.31375,2.057061 0.48401,1.227322 0.48401,2.800369 0,1.123605 -0.53587,2.299069 -0.51859,1.158177 -2.17806,3.543677 -1.6422,2.3855 -5.49703,7.502224 z m 2.99052,0 h -1.45204 q 3.64739,-4.822858 5.2723,-7.242931 1.64219,-2.437358 2.14349,-3.681967 0.5013,-1.261894 0.5013,-2.592934 0,-1.694051 -0.51858,-3.059663 -0.50131,-1.382898 -1.43476,-2.316355 -0.91617,-0.950742 -2.21264,-1.590333 -1.29647,-0.63959 -2.85223,-0.933456 -1.53847,-0.293866 -3.33624,-0.293866 -3.31896,0 -6.91449,1.037174 l -0.2593,-1.227323 q 3.6474,-1.05446 7.13922,-1.05446 2.59293,0 4.68457,0.570446 2.10892,0.553159 3.66468,1.676764 1.57304,1.123605 2.42007,2.955946 0.86431,1.83234 0.86431,4.235126 0,1.521188 -0.5013,2.869514 -0.48401,1.348326 -2.14349,3.820257 -1.64219,2.471931 -5.06487,6.828061 z"
             style="font-style:normal;font-variant:normal;font-weight:normal;font-stretch:normal;font-size:35.4022px;font-family:Monoton;-inkscape-font-specification:Monoton;fill:#241c1c;fill-opacity:1;stroke-width:0.368772"
             id="path1083" />
          <path
             d="m 124.62818,65.623419 q -1.79777,-3.560963 -1.79777,-8.124528 0,-4.563564 1.79777,-8.124528 1.79777,-3.560963 4.94386,-5.497021 3.14609,-1.936058 7.08736,-1.936058 3.94126,0 7.08735,1.936058 3.14609,1.936058 4.94386,5.497021 1.79777,3.560964 1.79777,8.124528 0,4.563565 -1.79777,8.124528 -1.79777,3.560964 -4.94386,5.497021 -3.14609,1.936058 -7.08735,1.936058 -3.94127,0 -7.08736,-1.936058 -3.14609,-1.936057 -4.94386,-5.497021 z M 141.2921,51.552428 q 1.72863,2.126207 1.72863,5.946463 0,3.820257 -1.72863,5.96375 -1.71133,2.126206 -4.6327,2.126206 -2.92138,0 -4.65,-2.126206 -1.71134,-2.143493 -1.71134,-5.96375 0,-3.820256 1.71134,-5.946463 1.72862,-2.143492 4.65,-2.143492 2.92137,0 4.6327,2.143492 z m 1.7632,-1.763195 q 2.45464,2.869514 2.45464,7.709658 0,4.840145 -2.45464,7.709659 -2.43736,2.869514 -6.3959,2.869514 -3.95855,0 -6.4132,-2.869514 -2.43735,-2.869514 -2.43735,-7.709659 0,-4.840144 2.43735,-7.709658 2.45465,-2.869514 6.4132,-2.869514 3.95854,0 6.3959,2.869514 z m 3.47453,0.847025 q 1.46933,2.973232 1.46933,6.862633 0,3.889402 -1.46933,6.87992 -1.45204,2.973231 -4.02769,4.580851 -2.57565,1.607619 -5.84274,1.607619 -3.2671,0 -5.84275,-1.607619 -2.57565,-1.60762 -4.04498,-4.580851 -1.45204,-2.990518 -1.45204,-6.87992 0,-3.889401 1.45204,-6.862633 1.46933,-2.990518 4.04498,-4.598137 2.57565,-1.607619 5.84275,-1.607619 3.26709,0 5.84274,1.607619 2.57565,1.607619 4.02769,4.598137 z M 132.891,52.41674 q -1.34833,1.763195 -1.34833,5.082151 0,3.318956 1.34833,5.082152 1.36561,1.763195 3.7684,1.763195 2.40278,0 3.75111,-1.763195 1.36561,-1.763196 1.36561,-5.082152 0,-3.318956 -1.36561,-5.082151 -1.34833,-1.763196 -3.75111,-1.763196 -2.40279,0 -3.7684,1.763196 z m -1.7632,-1.745909 q -2.07435,2.489217 -2.07435,6.82806 0,4.338844 2.07435,6.845347 2.09164,2.489217 5.5316,2.489217 3.43995,0 5.5143,-2.489217 2.09164,-2.506503 2.09164,-6.845347 0,-4.338843 -2.09164,-6.82806 -2.07435,-2.506504 -5.5143,-2.506504 -3.43996,0 -5.5316,2.506504 z m -1.76319,-1.763196 q -2.80037,3.232525 -2.80037,8.591256 0,5.358732 2.80037,8.591257 2.81765,3.232525 7.29479,3.232525 4.47713,0 7.2775,-3.232525 2.81765,-3.232525 2.81765,-8.591257 0,-5.358731 -2.81765,-8.591256 -2.80037,-3.232525 -7.2775,-3.232525 -4.47714,0 -7.29479,3.232525 z m -4.33885,2.748511 q -0.95074,2.679365 -0.95074,5.842745 0,3.16338 0.95074,5.860032 0.95074,2.679366 2.61022,4.528992 1.67677,1.849627 3.99312,2.886801 2.33364,1.037174 5.0303,1.037174 2.69665,0 5.013,-1.037174 2.33364,-1.037174 3.99312,-2.886801 1.67677,-1.849626 2.62751,-4.528992 0.95074,-2.696652 0.95074,-5.860032 0,-3.16338 -0.95074,-5.842745 -0.95074,-2.696652 -2.62751,-4.546279 -1.65948,-1.849626 -3.99312,-2.8868 -2.31635,-1.037174 -5.013,-1.037174 -2.69666,0 -5.0303,1.037174 -2.31635,1.037174 -3.99312,2.8868 -1.65948,1.849627 -2.61022,4.546279 z"
             style="font-style:normal;font-variant:normal;font-weight:normal;font-stretch:normal;font-size:35.4022px;font-family:Monoton;-inkscape-font-specification:Monoton;fill:#241c1c;fill-opacity:1;stroke-width:0.368772"
             id="path1085" />
          <path
             d="m 152.89117,66.833455 v -1.244608 h 16.87136 v 1.244608 z m 0,2.489218 v -1.244609 h 16.87136 v 1.244609 z m 0,2.489217 v -1.244609 h 16.87136 v 1.244609 z m 1.91877,-6.914492 h -1.45204 q 1.21003,-1.642192 2.38549,-3.215239 1.17547,-1.573047 1.95335,-2.610221 0.79517,-1.05446 1.53847,-2.057061 0.74331,-1.002601 1.19275,-1.60762 0.46673,-0.605018 0.8816,-1.175463 0.41487,-0.570446 0.62231,-0.881598 0.20743,-0.328438 0.36301,-0.622304 0.17286,-0.293866 0.22472,-0.466728 0.0519,-0.190149 0.0519,-0.363011 0,-0.795167 -0.65688,-1.019888 -0.65688,-0.224721 -2.31636,-0.224721 -2.69665,0 -5.3933,0.708736 l -0.25929,-1.19275 q 0.43215,-0.190149 2.17806,-0.484015 1.7632,-0.311152 3.3881,-0.311152 0.98532,0 1.71134,0.121004 0.72602,0.103717 1.31375,0.380297 0.60502,0.259293 0.91617,0.77788 0.31116,0.501301 0.31116,1.244609 0,0.743308 -0.7606,1.901485 -0.76059,1.158178 -3.90669,5.358731 -2.55836,3.405388 -4.28698,5.739029 z m 2.81765,0 h -1.45204 q 6.44776,-8.677688 7.1565,-9.697575 1.45204,-2.074348 1.62491,-2.955946 0.0519,-0.242007 0.0519,-0.518586 0,-3.57825 -5.42787,-3.57825 -1.65948,0 -3.37082,0.293866 -1.71133,0.293866 -2.5065,0.587732 l -0.24201,-1.19275 q 2.95595,-0.91617 6.13661,-0.91617 1.10632,0 2.03978,0.155576 0.95074,0.13829 1.81505,0.484014 0.86431,0.345725 1.46933,0.898884 0.60502,0.535873 0.95075,1.365612 0.36301,0.829739 0.36301,1.901486 0,1.106318 -1.08904,2.783083 -1.08903,1.676764 -6.5169,9.023412 -0.65688,0.881597 -1.00261,1.365612 z m 2.8868,0 h -1.45204 q 5.89461,-8.055383 7.1565,-10.026014 1.26189,-1.987916 1.26189,-3.318956 0,-1.624905 -0.63959,-2.800369 -0.6223,-1.175464 -1.76319,-1.83234 -1.12361,-0.656877 -2.48922,-0.950743 -1.34832,-0.293866 -3.0078,-0.293866 -3.19795,0 -6.37862,0.968029 l -0.25929,-1.261895 q 3.40538,-1.002601 6.58605,-1.002601 1.55576,0 2.8868,0.224721 1.33104,0.224721 2.5065,0.760594 1.19275,0.518587 2.00521,1.33104 0.82973,0.812452 1.31375,2.057061 0.48401,1.227322 0.48401,2.800369 0,1.123605 -0.53587,2.299069 -0.51859,1.158177 -2.17806,3.543677 -1.6422,2.3855 -5.49703,7.502224 z m 2.99052,0 h -1.45204 q 3.64739,-4.822858 5.2723,-7.242931 1.64219,-2.437358 2.14349,-3.681967 0.5013,-1.261894 0.5013,-2.592934 0,-1.694051 -0.51858,-3.059663 -0.50131,-1.382898 -1.43476,-2.316355 -0.91617,-0.950742 -2.21264,-1.590333 -1.29647,-0.63959 -2.85223,-0.933456 -1.53847,-0.293866 -3.33624,-0.293866 -3.31896,0 -6.91449,1.037174 l -0.2593,-1.227323 q 3.6474,-1.05446 7.13922,-1.05446 2.59293,0 4.68457,0.570446 2.10892,0.553159 3.66468,1.676764 1.57304,1.123605 2.42007,2.955946 0.86431,1.83234 0.86431,4.235126 0,1.521188 -0.5013,2.869514 -0.48401,1.348326 -2.14349,3.820257 -1.64219,2.471931 -5.06487,6.828061 z"
             style="font-style:normal;font-variant:normal;font-weight:normal;font-stretch:normal;font-size:35.4022px;font-family:Monoton;-inkscape-font-specification:Monoton;fill:#241c1c;fill-opacity:1;stroke-width:0.368772"
             id="path1087" />
          <path
             d="M 173.1852,49.408936 V 48.164327 H 185.735 V 71.81189 h -1.24461 V 49.408936 h -1.24461 V 71.81189 h -1.24461 V 49.408936 h -1.2446 V 71.81189 h -1.24461 V 49.408936 h -1.24461 V 71.81189 h -1.24461 V 49.408936 Z m 0,-2.489217 V 45.67511 h 12.5498 v 1.244609 z m 0,-2.489217 v -1.244609 h 12.5498 v 1.244609 z"
             style="font-style:normal;font-variant:normal;font-weight:normal;font-stretch:normal;font-size:35.4022px;font-family:Monoton;-inkscape-font-specification:Monoton;fill:#241c1c;fill-opacity:1;stroke-width:0.368772"
             id="path1089" />
        </g>
      </g>
      <g
         id="g8536"
         transform="matrix(1.8297526,0,0,1.8297526,37.923351,37.923079)"
         style="fill:#d6d6d6;fill-opacity:1;filter:url(#filter3270)"
         inkscape:export-xdpi="1146.4374"
         inkscape:export-ydpi="1146.4374">
        <path
           fill="#000088"
           fill-rule="evenodd"
           d="m 0,-20 a 20,20 0 0 0 0,40 20,20 0 0 0 0,-40 z m 0,2.5 a 17.5,17.5 0 0 0 0,35 17.5,17.5 0 0 0 0,-35 z"
           id="path8346"
           style="fill:#d6d6d6;fill-opacity:1" />
        <circle
           r="3.5"
           fill="#000088"
           id="circle8348"
           cx="0"
           cy="0"
           style="fill:#d6d6d6;fill-opacity:1" />
        <g
           id="g8410"
           style="fill:#d6d6d6;fill-opacity:1">
          <g
             id="g8378"
             style="fill:#d6d6d6;fill-opacity:1">
            <g
               id="g8362"
               style="fill:#d6d6d6;fill-opacity:1">
              <g
                 id="g8354"
                 style="fill:#d6d6d6;fill-opacity:1">
                <circle
                   r="0.875"
                   fill="#000088"
                   transform="rotate(7.5,-8.75,133.4992)"
                   id="circle8350"
                   cx="0"
                   cy="0"
                   style="fill:#d6d6d6;fill-opacity:1" />
                <path
                   fill="#000088"
                   d="M 0,17.5 0.6,7 C 0.6,7 0,2 0,2 0,2 -0.6,7 -0.6,7 Z"
                   id="path8352"
                   style="fill:#d6d6d6;fill-opacity:1" />
              </g>
              <g
                 id="g8360"
                 style="fill:#d6d6d6;fill-opacity:1"
                 transform="rotate(15)">
                <circle
                   r="0.875"
                   fill="#000088"
                   transform="rotate(7.5,-8.75,133.4992)"
                   id="circle8356"
                   cx="0"
                   cy="0"
                   style="fill:#d6d6d6;fill-opacity:1" />
                <path
                   fill="#000088"
                   d="M 0,17.5 0.6,7 C 0.6,7 0,2 0,2 0,2 -0.6,7 -0.6,7 Z"
                   id="path8358"
                   style="fill:#d6d6d6;fill-opacity:1" />
              </g>
            </g>
            <g
               id="g8376"
               style="fill:#d6d6d6;fill-opacity:1"
               transform="rotate(30)">
              <g
                 id="g8368"
                 style="fill:#d6d6d6;fill-opacity:1">
                <circle
                   r="0.875"
                   fill="#000088"
                   transform="rotate(7.5,-8.75,133.4992)"
                   id="circle8364"
                   cx="0"
                   cy="0"
                   style="fill:#d6d6d6;fill-opacity:1" />
                <path
                   fill="#000088"
                   d="M 0,17.5 0.6,7 C 0.6,7 0,2 0,2 0,2 -0.6,7 -0.6,7 Z"
                   id="path8366"
                   style="fill:#d6d6d6;fill-opacity:1" />
              </g>
              <g
                 id="g8374"
                 style="fill:#d6d6d6;fill-opacity:1"
                 transform="rotate(15)">
                <circle
                   r="0.875"
                   fill="#000088"
                   transform="rotate(7.5,-8.75,133.4992)"
                   id="circle8370"
                   cx="0"
                   cy="0"
                   style="fill:#d6d6d6;fill-opacity:1" />
                <path
                   fill="#000088"
                   d="M 0,17.5 0.6,7 C 0.6,7 0,2 0,2 0,2 -0.6,7 -0.6,7 Z"
                   id="path8372"
                   style="fill:#d6d6d6;fill-opacity:1" />
              </g>
            </g>
          </g>
          <g
             id="g8408"
             style="fill:#d6d6d6;fill-opacity:1"
             transform="rotate(60)">
            <g
               id="g8392"
               style="fill:#d6d6d6;fill-opacity:1">
              <g
                 id="g8384"
                 style="fill:#d6d6d6;fill-opacity:1">
                <circle
                   r="0.875"
                   fill="#000088"
                   transform="rotate(7.5,-8.75,133.4992)"
                   id="circle8380"
                   cx="0"
                   cy="0"
                   style="fill:#d6d6d6;fill-opacity:1" />
                <path
                   fill="#000088"
                   d="M 0,17.5 0.6,7 C 0.6,7 0,2 0,2 0,2 -0.6,7 -0.6,7 Z"
                   id="path8382"
                   style="fill:#d6d6d6;fill-opacity:1" />
              </g>
              <g
                 id="g8390"
                 style="fill:#d6d6d6;fill-opacity:1"
                 transform="rotate(15)">
                <circle
                   r="0.875"
                   fill="#000088"
                   transform="rotate(7.5,-8.75,133.4992)"
                   id="circle8386"
                   cx="0"
                   cy="0"
                   style="fill:#d6d6d6;fill-opacity:1" />
                <path
                   fill="#000088"
                   d="M 0,17.5 0.6,7 C 0.6,7 0,2 0,2 0,2 -0.6,7 -0.6,7 Z"
                   id="path8388"
                   style="fill:#d6d6d6;fill-opacity:1" />
              </g>
            </g>
            <g
               id="g8406"
               style="fill:#d6d6d6;fill-opacity:1"
               transform="rotate(30)">
              <g
                 id="g8398"
                 style="fill:#d6d6d6;fill-opacity:1">
                <circle
                   r="0.875"
                   fill="#000088"
                   transform="rotate(7.5,-8.75,133.4992)"
                   id="circle8394"
                   cx="0"
                   cy="0"
                   style="fill:#d6d6d6;fill-opacity:1" />
                <path
                   fill="#000088"
                   d="M 0,17.5 0.6,7 C 0.6,7 0,2 0,2 0,2 -0.6,7 -0.6,7 Z"
                   id="path8396"
                   style="fill:#d6d6d6;fill-opacity:1" />
              </g>
              <g
                 id="g8404"
                 style="fill:#d6d6d6;fill-opacity:1"
                 transform="rotate(15)">
                <circle
                   r="0.875"
                   fill="#000088"
                   transform="rotate(7.5,-8.75,133.4992)"
                   id="circle8400"
                   cx="0"
                   cy="0"
                   style="fill:#d6d6d6;fill-opacity:1" />
                <path
                   fill="#000088"
                   d="M 0,17.5 0.6,7 C 0.6,7 0,2 0,2 0,2 -0.6,7 -0.6,7 Z"
                   id="path8402"
                   style="fill:#d6d6d6;fill-opacity:1" />
              </g>
            </g>
          </g>
        </g>
        <g
           id="g8472"
           style="fill:#d6d6d6;fill-opacity:1"
           transform="rotate(120)">
          <g
             id="g8440"
             style="fill:#d6d6d6;fill-opacity:1">
            <g
               id="g8424"
               style="fill:#d6d6d6;fill-opacity:1">
              <g
                 id="g8416"
                 style="fill:#d6d6d6;fill-opacity:1">
                <circle
                   r="0.875"
                   fill="#000088"
                   transform="rotate(7.5,-8.75,133.4992)"
                   id="circle8412"
                   cx="0"
                   cy="0"
                   style="fill:#d6d6d6;fill-opacity:1" />
                <path
                   fill="#000088"
                   d="M 0,17.5 0.6,7 C 0.6,7 0,2 0,2 0,2 -0.6,7 -0.6,7 Z"
                   id="path8414"
                   style="fill:#d6d6d6;fill-opacity:1" />
              </g>
              <g
                 id="g8422"
                 style="fill:#d6d6d6;fill-opacity:1"
                 transform="rotate(15)">
                <circle
                   r="0.875"
                   fill="#000088"
                   transform="rotate(7.5,-8.75,133.4992)"
                   id="circle8418"
                   cx="0"
                   cy="0"
                   style="fill:#d6d6d6;fill-opacity:1" />
                <path
                   fill="#000088"
                   d="M 0,17.5 0.6,7 C 0.6,7 0,2 0,2 0,2 -0.6,7 -0.6,7 Z"
                   id="path8420"
                   style="fill:#d6d6d6;fill-opacity:1" />
              </g>
            </g>
            <g
               id="g8438"
               style="fill:#d6d6d6;fill-opacity:1"
               transform="rotate(30)">
              <g
                 id="g8430"
                 style="fill:#d6d6d6;fill-opacity:1">
                <circle
                   r="0.875"
                   fill="#000088"
                   transform="rotate(7.5,-8.75,133.4992)"
                   id="circle8426"
                   cx="0"
                   cy="0"
                   style="fill:#d6d6d6;fill-opacity:1" />
                <path
                   fill="#000088"
                   d="M 0,17.5 0.6,7 C 0.6,7 0,2 0,2 0,2 -0.6,7 -0.6,7 Z"
                   id="path8428"
                   style="fill:#d6d6d6;fill-opacity:1" />
              </g>
              <g
                 id="g8436"
                 style="fill:#d6d6d6;fill-opacity:1"
                 transform="rotate(15)">
                <circle
                   r="0.875"
                   fill="#000088"
                   transform="rotate(7.5,-8.75,133.4992)"
                   id="circle8432"
                   cx="0"
                   cy="0"
                   style="fill:#d6d6d6;fill-opacity:1" />
                <path
                   fill="#000088"
                   d="M 0,17.5 0.6,7 C 0.6,7 0,2 0,2 0,2 -0.6,7 -0.6,7 Z"
                   id="path8434"
                   style="fill:#d6d6d6;fill-opacity:1" />
              </g>
            </g>
          </g>
          <g
             id="g8470"
             style="fill:#d6d6d6;fill-opacity:1"
             transform="rotate(60)">
            <g
               id="g8454"
               style="fill:#d6d6d6;fill-opacity:1">
              <g
                 id="g8446"
                 style="fill:#d6d6d6;fill-opacity:1">
                <circle
                   r="0.875"
                   fill="#000088"
                   transform="rotate(7.5,-8.75,133.4992)"
                   id="circle8442"
                   cx="0"
                   cy="0"
                   style="fill:#d6d6d6;fill-opacity:1" />
                <path
                   fill="#000088"
                   d="M 0,17.5 0.6,7 C 0.6,7 0,2 0,2 0,2 -0.6,7 -0.6,7 Z"
                   id="path8444"
                   style="fill:#d6d6d6;fill-opacity:1" />
              </g>
              <g
                 id="g8452"
                 style="fill:#d6d6d6;fill-opacity:1"
                 transform="rotate(15)">
                <circle
                   r="0.875"
                   fill="#000088"
                   transform="rotate(7.5,-8.75,133.4992)"
                   id="circle8448"
                   cx="0"
                   cy="0"
                   style="fill:#d6d6d6;fill-opacity:1" />
                <path
                   fill="#000088"
                   d="M 0,17.5 0.6,7 C 0.6,7 0,2 0,2 0,2 -0.6,7 -0.6,7 Z"
                   id="path8450"
                   style="fill:#d6d6d6;fill-opacity:1" />
              </g>
            </g>
            <g
               id="g8468"
               style="fill:#d6d6d6;fill-opacity:1"
               transform="rotate(30)">
              <g
                 id="g8460"
                 style="fill:#d6d6d6;fill-opacity:1">
                <circle
                   r="0.875"
                   fill="#000088"
                   transform="rotate(7.5,-8.75,133.4992)"
                   id="circle8456"
                   cx="0"
                   cy="0"
                   style="fill:#d6d6d6;fill-opacity:1" />
                <path
                   fill="#000088"
                   d="M 0,17.5 0.6,7 C 0.6,7 0,2 0,2 0,2 -0.6,7 -0.6,7 Z"
                   id="path8458"
                   style="fill:#d6d6d6;fill-opacity:1" />
              </g>
              <g
                 id="g8466"
                 style="fill:#d6d6d6;fill-opacity:1"
                 transform="rotate(15)">
                <circle
                   r="0.875"
                   fill="#000088"
                   transform="rotate(7.5,-8.75,133.4992)"
                   id="circle8462"
                   cx="0"
                   cy="0"
                   style="fill:#d6d6d6;fill-opacity:1" />
                <path
                   fill="#000088"
                   d="M 0,17.5 0.6,7 C 0.6,7 0,2 0,2 0,2 -0.6,7 -0.6,7 Z"
                   id="path8464"
                   style="fill:#d6d6d6;fill-opacity:1" />
              </g>
            </g>
          </g>
        </g>
        <g
           id="g8534"
           style="fill:#d6d6d6;fill-opacity:1"
           transform="rotate(-120)">
          <g
             id="g8502"
             style="fill:#d6d6d6;fill-opacity:1">
            <g
               id="g8486"
               style="fill:#d6d6d6;fill-opacity:1">
              <g
                 id="g8478"
                 style="fill:#d6d6d6;fill-opacity:1">
                <circle
                   r="0.875"
                   fill="#000088"
                   transform="rotate(7.5,-8.75,133.4992)"
                   id="circle8474"
                   cx="0"
                   cy="0"
                   style="fill:#d6d6d6;fill-opacity:1" />
                <path
                   fill="#000088"
                   d="M 0,17.5 0.6,7 C 0.6,7 0,2 0,2 0,2 -0.6,7 -0.6,7 Z"
                   id="path8476"
                   style="fill:#d6d6d6;fill-opacity:1" />
              </g>
              <g
                 id="g8484"
                 style="fill:#d6d6d6;fill-opacity:1"
                 transform="rotate(15)">
                <circle
                   r="0.875"
                   fill="#000088"
                   transform="rotate(7.5,-8.75,133.4992)"
                   id="circle8480"
                   cx="0"
                   cy="0"
                   style="fill:#d6d6d6;fill-opacity:1" />
                <path
                   fill="#000088"
                   d="M 0,17.5 0.6,7 C 0.6,7 0,2 0,2 0,2 -0.6,7 -0.6,7 Z"
                   id="path8482"
                   style="fill:#d6d6d6;fill-opacity:1" />
              </g>
            </g>
            <g
               id="g8500"
               style="fill:#d6d6d6;fill-opacity:1"
               transform="rotate(30)">
              <g
                 id="g8492"
                 style="fill:#d6d6d6;fill-opacity:1">
                <circle
                   r="0.875"
                   fill="#000088"
                   transform="rotate(7.5,-8.75,133.4992)"
                   id="circle8488"
                   cx="0"
                   cy="0"
                   style="fill:#d6d6d6;fill-opacity:1" />
                <path
                   fill="#000088"
                   d="M 0,17.5 0.6,7 C 0.6,7 0,2 0,2 0,2 -0.6,7 -0.6,7 Z"
                   id="path8490"
                   style="fill:#d6d6d6;fill-opacity:1" />
              </g>
              <g
                 id="g8498"
                 style="fill:#d6d6d6;fill-opacity:1"
                 transform="rotate(15)">
                <circle
                   r="0.875"
                   fill="#000088"
                   transform="rotate(7.5,-8.75,133.4992)"
                   id="circle8494"
                   cx="0"
                   cy="0"
                   style="fill:#d6d6d6;fill-opacity:1" />
                <path
                   fill="#000088"
                   d="M 0,17.5 0.6,7 C 0.6,7 0,2 0,2 0,2 -0.6,7 -0.6,7 Z"
                   id="path8496"
                   style="fill:#d6d6d6;fill-opacity:1" />
              </g>
            </g>
          </g>
          <g
             id="g8532"
             style="fill:#d6d6d6;fill-opacity:1"
             transform="rotate(60)">
            <g
               id="g8516"
               style="fill:#d6d6d6;fill-opacity:1">
              <g
                 id="g8508"
                 style="fill:#d6d6d6;fill-opacity:1">
                <circle
                   r="0.875"
                   fill="#000088"
                   transform="rotate(7.5,-8.75,133.4992)"
                   id="circle8504"
                   cx="0"
                   cy="0"
                   style="fill:#d6d6d6;fill-opacity:1" />
                <path
                   fill="#000088"
                   d="M 0,17.5 0.6,7 C 0.6,7 0,2 0,2 0,2 -0.6,7 -0.6,7 Z"
                   id="path8506"
                   style="fill:#d6d6d6;fill-opacity:1" />
              </g>
              <g
                 id="g8514"
                 style="fill:#d6d6d6;fill-opacity:1"
                 transform="rotate(15)">
                <circle
                   r="0.875"
                   fill="#000088"
                   transform="rotate(7.5,-8.75,133.4992)"
                   id="circle8510"
                   cx="0"
                   cy="0"
                   style="fill:#d6d6d6;fill-opacity:1" />
                <path
                   fill="#000088"
                   d="M 0,17.5 0.6,7 C 0.6,7 0,2 0,2 0,2 -0.6,7 -0.6,7 Z"
                   id="path8512"
                   style="fill:#d6d6d6;fill-opacity:1" />
              </g>
            </g>
            <g
               id="g8530"
               style="fill:#d6d6d6;fill-opacity:1"
               transform="rotate(30)">
              <g
                 id="g8522"
                 style="fill:#d6d6d6;fill-opacity:1">
                <circle
                   r="0.875"
                   fill="#000088"
                   transform="rotate(7.5,-8.75,133.4992)"
                   id="circle8518"
                   cx="0"
                   cy="0"
                   style="fill:#d6d6d6;fill-opacity:1" />
                <path
                   fill="#000088"
                   d="M 0,17.5 0.6,7 C 0.6,7 0,2 0,2 0,2 -0.6,7 -0.6,7 Z"
                   id="path8520"
                   style="fill:#d6d6d6;fill-opacity:1" />
              </g>
              <g
                 id="g8528"
                 style="fill:#d6d6d6;fill-opacity:1"
                 transform="rotate(15)">
                <circle
                   r="0.875"
                   fill="#000088"
                   transform="rotate(7.5,-8.75,133.4992)"
                   id="circle8524"
                   cx="0"
                   cy="0"
                   style="fill:#d6d6d6;fill-opacity:1" />
                <path
                   fill="#000088"
                   d="M 0,17.5 0.6,7 C 0.6,7 0,2 0,2 0,2 -0.6,7 -0.6,7 Z"
                   id="path8526"
                   style="fill:#d6d6d6;fill-opacity:1" />
              </g>
            </g>
          </g>
        </g>
      </g>
      <g
         id="g9294"
         transform="matrix(1.0885262,0,0,1.202754,15.750222,-318.0764)"
         style="fill:#a80030;fill-opacity:1"
         inkscape:export-xdpi="1146.4374"
         inkscape:export-ydpi="1146.4374">
        <path
           i:knockout="Off"
           fill="#a80030"
           d="m 24.098688,297.335 c -0.787623,0.01 0.148145,0.40488 1.176693,0.56356 0.285211,-0.22246 0.541426,-0.446 0.771281,-0.66425 -0.639483,0.15662 -1.291092,0.1602 -1.947974,0.10063"
           id="path9246"
           style="fill:#a80030;fill-opacity:1;stroke-width:0.527191" />
        <path
           i:knockout="Off"
           fill="#a80030"
           d="m 28.325187,296.28114 c 0.470782,-0.64791 0.812402,-1.35646 0.933128,-2.08925 -0.105963,0.5219 -0.388012,0.97266 -0.655827,1.44925 -1.472447,0.92733 -0.139179,-0.5504 -0.0011,-1.11291 -1.58263,1.99437 -0.218257,1.19568 -0.276247,1.75291"
           id="path9248"
           style="fill:#a80030;fill-opacity:1;stroke-width:0.527191" />
        <path
           i:knockout="Off"
           fill="#a80030"
           d="m 29.887255,292.21966 c 0.09594,-1.41867 -0.278885,-0.96951 -0.404883,-0.42914 0.146551,0.0769 0.263069,1.00062 0.404883,0.42914"
           id="path9250"
           style="fill:#a80030;fill-opacity:1;stroke-width:0.527191" />
        <path
           i:knockout="Off"
           fill="#a80030"
           d="m 21.110565,272.83007 c 0.420698,0.0749 0.908878,0.1329 0.838762,0.23354 0.461821,-0.10182 0.565677,-0.19347 -0.838762,-0.23354"
           id="path9252"
           style="fill:#a80030;fill-opacity:1;stroke-width:0.527191" />
        <path
           i:knockout="Off"
           fill="#a80030"
           d="m 21.949853,273.06361 -0.295754,0.0618 0.275721,-0.0253 0.02003,-0.0365"
           id="path9254"
           style="fill:#a80030;fill-opacity:1;stroke-width:0.527191" />
        <path
           i:knockout="Off"
           fill="#a80030"
           d="m 35.060589,292.7574 c 0.04744,1.27369 -0.37167,1.89261 -0.75072,2.98705 l -0.681661,0.33899 c -0.55724,1.08287 0.05535,0.68747 -0.343728,1.54836 -0.870922,0.77341 -2.639122,2.4193 -3.205327,2.57008 -0.413846,-0.01 0.279939,-0.48819 0.370615,-0.67533 -1.164565,0.7992 -0.93471,1.19988 -2.716092,1.68648 l -0.05167,-0.11656 c -4.391508,2.06659 -10.492172,-2.02811 -10.412041,-7.61422 -0.04639,0.35427 -0.13338,0.2657 -0.230383,0.40805 -0.226692,-2.87374 1.32747,-5.7601 3.948667,-6.94048 2.563735,-1.26843 5.569257,-0.74862 7.404411,0.96422 -1.00799,-1.32115 -3.016065,-2.7219 -5.394226,-2.59221 -2.330716,0.0379 -4.51171,1.51886 -5.239233,3.12731 -1.193563,0.75125 -1.332742,2.89745 -1.852553,3.29073 -0.700639,5.14539 1.316397,7.36751 4.728911,9.98291 0.535627,0.36165 0.150775,0.41702 0.222474,0.69221 -1.133462,-0.53036 -2.170976,-1.33169 -3.025027,-2.3128 0.453386,0.66268 0.942093,1.3069 1.574196,1.81301 -1.069673,-0.36113 -2.497836,-2.5901 -2.91379,-2.68076 1.842536,3.29916 7.474526,5.78593 10.425219,4.55177 -1.365427,0.0506 -3.09936,0.0279 -4.632433,-0.5388 -0.645811,-0.3316 -1.520423,-1.01747 -1.363848,-1.14557 4.025639,1.50301 8.183074,1.13768 11.665703,-1.65381 0.886738,-0.69063 1.854662,-1.86467 2.1346,-1.88049 -0.421226,0.63369 0.07223,0.30472 -0.25147,0.86406 0.881464,-1.42394 -0.384323,-0.57991 0.912041,-2.45883 l 0.478691,0.65899 c -0.179248,-1.183 1.468229,-2.61803 1.300583,-4.48745 0.377996,-0.57148 0.421226,0.61576 0.02056,1.93057 0.556186,-1.45873 0.147089,-1.69334 0.289427,-2.89745 0.153406,0.40489 0.357435,0.83456 0.461292,1.26212 -0.362707,-1.41024 0.370616,-2.37395 0.553025,-3.19374 -0.180305,-0.0791 -0.559351,0.62315 -0.646863,-1.04174 0.01315,-0.72329 0.201914,-0.37904 0.274139,-0.55723 -0.141291,-0.0817 -0.514013,-0.63632 -0.740177,-1.69967 0.162909,-0.25041 0.438623,0.64793 0.662153,0.68429 -0.143921,-0.84509 -0.391176,-1.48984 -0.401721,-2.13881 -0.653717,-1.36542 -0.231437,0.18232 -0.760738,-0.58624 -0.695894,-2.16887 0.576747,-0.50347 0.663207,-1.48826 1.053331,1.52622 1.653802,3.89331 1.930577,4.87336 -0.210876,-1.19514 -0.550915,-2.35338 -0.96687,-3.47367 0.321061,0.1355 -0.516121,-2.45829 0.41701,-0.7407 -0.995866,-3.66135 -4.258656,-7.08283 -7.261014,-8.6876 0.366398,0.33582 0.8298,0.75758 0.664262,0.82401 -1.494062,-0.88833 -1.231521,-0.95845 -1.445561,-1.3338 -1.215177,-0.49503 -1.296364,0.0406 -2.100333,10e-4 -2.293284,-1.21677 -2.735071,-1.08761 -4.84542,-1.84886 l 0.09594,0.44916 c -1.518841,-0.50611 -1.769783,0.19088 -3.410931,0.001 -0.09965,-0.0775 0.526137,-0.28258 1.041729,-0.3569 -1.468756,0.19407 -1.400221,-0.28995 -2.837345,0.0532 0.353745,-0.24831 0.729107,-0.41331 1.106575,-0.6242 -1.197252,0.0727 -2.859489,0.69695 -2.346531,0.12872 -1.953245,0.87197 -5.422695,2.09559 -7.369614,3.92125 l -0.06115,-0.40909 c -0.8920091,1.07071 -3.8901487,3.19794 -4.1289681,4.58604 l -0.2388174,0.0554 c -0.4634022,0.78603 -0.7644286,1.67646 -1.1324082,2.48465 -0.6067971,1.03488 -0.8899006,0.39855 -0.8034405,0.56094 -1.1940891,2.42085 -1.7882356,4.45475 -2.3001381,6.12386 0.3648175,0.54563 0.00897,3.28545 0.1465511,5.47804 -0.5988887,10.83063 7.6010541,21.34548 16.5643692,23.77267 1.313763,0.47078 3.267008,0.4539 4.928718,0.50031 -1.9601,-0.56094 -2.213152,-0.29681 -4.123696,-0.96266 -1.377552,-0.6495 -1.679106,-1.39021 -2.655465,-2.2374 l 0.386433,0.68271 c -1.913708,-0.67745 -1.112904,-0.83824 -2.670228,-1.33116 l 0.412792,-0.53826 c -0.620506,-0.0474 -1.643259,-1.04491 -1.92267,-1.59897 l -0.679023,0.0269 c -0.815039,-1.00482 -1.249972,-1.73078 -1.217814,-2.29329 l -0.219311,0.39117 c -0.248308,-0.42648 -3.0002495,-3.77362 -1.5726131,-2.99444 -0.265179,-0.24146 -0.61787,-0.39381 -1.0000839,-1.08918 l 0.2904839,-0.3316 c -0.6858698,-0.884 -1.2641995,-2.01693 -1.2199154,-2.3944 0.3663976,0.49451 0.6205037,0.5873 0.8725018,0.67218 -1.734989,-4.304 -1.8325197,-0.23671 -3.1457546,-4.38097 l 0.2773033,-0.0221 c -0.2124582,-0.32214 -0.3426744,-0.66956 -0.5134846,-1.01169 l 0.1212459,-1.20463 c -1.2483898,-1.4424 -0.3490007,-6.13917 -0.1681701,-8.7145 0.1238959,-1.047 1.0422579,-2.162 1.7397333,-3.91069 l -0.4249164,-0.0727 c 0.8129289,-1.41709 4.6403419,-5.69313 6.4138169,-5.47383 0.858795,-1.07862 -0.1708,-0.004 -0.338984,-0.27519 1.886818,-1.95219 2.479911,-1.37914 3.753078,-1.73078 1.372281,-0.81451 -1.178273,0.31843 -0.527718,-0.31052 2.373944,-0.60573 1.681741,-1.37808 4.777939,-1.68542 0.32686,0.1855 -0.757574,0.2868 -1.029605,0.52772 1.976968,-0.96793 6.257241,-0.74702 9.038704,0.53669 3.224833,1.50829 6.850332,5.96464 6.993729,10.15739 l 0.16291,0.0438 c -0.08223,1.66699 0.25516,3.59493 -0.33055,5.36524 l 0.395921,-0.83876"
           id="path9256"
           style="fill:#a80030;fill-opacity:1;stroke-width:0.527191" />
        <path
           i:knockout="Off"
           fill="#a80030"
           d="m 15.499661,298.41575 -0.111244,0.55197 c 0.518231,0.7038 0.929441,1.46611 1.590013,2.01439 -0.475529,-0.92732 -0.82822,-1.31059 -1.478775,-2.56636"
           id="path9258"
           style="fill:#a80030;fill-opacity:1;stroke-width:0.527191" />
        <path
           i:knockout="Off"
           fill="#a80030"
           d="m 16.723273,298.36831 c -0.274139,-0.30367 -0.435461,-0.6685 -0.617867,-1.0312 0.173968,0.63843 0.530353,1.18723 0.860903,1.74606 l -0.243036,-0.71486"
           id="path9260"
           style="fill:#a80030;fill-opacity:1;stroke-width:0.527191" />
        <path
           i:knockout="Off"
           fill="#a80030"
           d="m 38.382426,293.66048 -0.115448,0.29101 c -0.21193,1.50672 -0.671116,2.99761 -1.373335,4.38043 0.776027,-1.45873 1.276333,-3.05456 1.488791,-4.67144"
           id="path9262"
           style="fill:#a80030;fill-opacity:1;stroke-width:0.527191" />
        <path
           i:knockout="Off"
           fill="#a80030"
           d="m 21.267141,272.45206 c 0.531937,-0.19447 1.30849,-0.107 1.874693,-0.23512 -0.737013,0.0618 -1.470338,0.0986 -2.194173,0.19089 l 0.31948,0.0442"
           id="path9264"
           style="fill:#a80030;fill-opacity:1;stroke-width:0.527191" />
        <path
           i:knockout="Off"
           fill="#a80030"
           d="m 2.5671177,282.39595 c 0.1228398,1.13559 -0.8540509,1.57684 0.2161483,0.82719 0.5746395,-1.29374 -0.2235287,-0.35693 -0.2161483,-0.82719"
           id="path9266"
           style="fill:#a80030;fill-opacity:1;stroke-width:0.527191" />
        <path
           i:knockout="Off"
           fill="#a80030"
           d="m 1.3081834,287.65418 c 0.2472518,-0.75758 0.291536,-1.21202 0.3859045,-1.65118 -0.6816606,0.87198 -0.3142071,1.05808 -0.3859045,1.65118"
           id="path9268"
           style="fill:#a80030;fill-opacity:1;stroke-width:0.527191" />
        <path
           i:knockout="Off"
           fill="#a80030"
           d="m 24.098688,297.335 c -0.787623,0.01 0.148145,0.40488 1.176693,0.56356 0.285211,-0.22246 0.541426,-0.446 0.771281,-0.66425 -0.639483,0.15662 -1.291092,0.1602 -1.947974,0.10063"
           id="path9270"
           style="fill:#a80030;fill-opacity:1;stroke-width:0.527191" />
        <path
           i:knockout="Off"
           fill="#a80030"
           d="m 28.325187,296.28114 c 0.470782,-0.64791 0.812402,-1.35646 0.933128,-2.08925 -0.105963,0.5219 -0.388012,0.97266 -0.655827,1.44925 -1.472447,0.92733 -0.139179,-0.5504 -0.0011,-1.11291 -1.58263,1.99437 -0.218257,1.19568 -0.276247,1.75291"
           id="path9272"
           style="fill:#a80030;fill-opacity:1;stroke-width:0.527191" />
        <path
           i:knockout="Off"
           fill="#a80030"
           d="m 29.887255,292.21966 c 0.09594,-1.41867 -0.278885,-0.96951 -0.404883,-0.42914 0.146551,0.0769 0.263069,1.00062 0.404883,0.42914"
           id="path9274"
           style="fill:#a80030;fill-opacity:1;stroke-width:0.527191" />
        <path
           i:knockout="Off"
           fill="#a80030"
           d="m 21.110565,272.83007 c 0.420698,0.0749 0.908878,0.1329 0.838762,0.23354 0.461821,-0.10182 0.565677,-0.19347 -0.838762,-0.23354"
           id="path9276"
           style="fill:#a80030;fill-opacity:1;stroke-width:0.527191" />
        <path
           i:knockout="Off"
           fill="#a80030"
           d="m 21.949853,273.06361 -0.295754,0.0618 0.275721,-0.0253 0.02003,-0.0365"
           id="path9278"
           style="fill:#a80030;fill-opacity:1;stroke-width:0.527191" />
        <path
           i:knockout="Off"
           fill="#a80030"
           d="m 35.060589,292.7574 c 0.04744,1.27369 -0.37167,1.89261 -0.75072,2.98705 l -0.681661,0.33899 c -0.55724,1.08287 0.05535,0.68747 -0.343728,1.54836 -0.870922,0.77341 -2.639122,2.4193 -3.205327,2.57008 -0.413846,-0.01 0.279939,-0.48819 0.370615,-0.67533 -1.164565,0.7992 -0.93471,1.19988 -2.716092,1.68648 l -0.05167,-0.11656 c -4.391508,2.06659 -10.492172,-2.02811 -10.412041,-7.61422 -0.04639,0.35427 -0.13338,0.2657 -0.230383,0.40805 -0.226692,-2.87374 1.32747,-5.7601 3.948667,-6.94048 2.563735,-1.26843 5.569257,-0.74862 7.404411,0.96422 -1.00799,-1.32115 -3.016065,-2.7219 -5.394226,-2.59221 -2.330716,0.0379 -4.51171,1.51886 -5.239233,3.12731 -1.193563,0.75125 -1.332742,2.89745 -1.852553,3.29073 -0.700639,5.14539 1.316397,7.36751 4.728911,9.98291 0.535627,0.36165 0.150775,0.41702 0.222474,0.69221 -1.133462,-0.53036 -2.170976,-1.33169 -3.025027,-2.3128 0.453386,0.66268 0.942093,1.3069 1.574196,1.81301 -1.069673,-0.36113 -2.497836,-2.5901 -2.91379,-2.68076 1.842536,3.29916 7.474526,5.78593 10.425219,4.55177 -1.365427,0.0506 -3.09936,0.0279 -4.632433,-0.5388 -0.645811,-0.3316 -1.520423,-1.01747 -1.363848,-1.14557 4.025639,1.50301 8.183074,1.13768 11.665703,-1.65381 0.886738,-0.69063 1.854662,-1.86467 2.1346,-1.88049 -0.421226,0.63369 0.07223,0.30472 -0.25147,0.86406 0.881464,-1.42394 -0.384323,-0.57991 0.912041,-2.45883 l 0.478691,0.65899 c -0.179248,-1.183 1.468229,-2.61803 1.300583,-4.48745 0.377996,-0.57148 0.421226,0.61576 0.02056,1.93057 0.556186,-1.45873 0.147089,-1.69334 0.289427,-2.89745 0.153406,0.40489 0.357435,0.83456 0.461292,1.26212 -0.362707,-1.41024 0.370616,-2.37395 0.553025,-3.19374 -0.180305,-0.0791 -0.559351,0.62315 -0.646863,-1.04174 0.01315,-0.72329 0.201914,-0.37904 0.274139,-0.55723 -0.141291,-0.0817 -0.514013,-0.63632 -0.740177,-1.69967 0.162909,-0.25041 0.438623,0.64793 0.662153,0.68429 -0.143921,-0.84509 -0.391176,-1.48984 -0.401721,-2.13881 -0.653717,-1.36542 -0.231437,0.18232 -0.760738,-0.58624 -0.695894,-2.16887 0.576747,-0.50347 0.663207,-1.48826 1.053331,1.52622 1.653802,3.89331 1.930577,4.87336 -0.210876,-1.19514 -0.550915,-2.35338 -0.96687,-3.47367 0.321061,0.1355 -0.516121,-2.45829 0.41701,-0.7407 -0.995866,-3.66135 -4.258656,-7.08283 -7.261014,-8.6876 0.366398,0.33582 0.8298,0.75758 0.664262,0.82401 -1.494062,-0.88833 -1.231521,-0.95845 -1.445561,-1.3338 -1.215177,-0.49503 -1.296364,0.0406 -2.100333,10e-4 -2.293284,-1.21677 -2.735071,-1.08761 -4.84542,-1.84886 l 0.09594,0.44916 c -1.518841,-0.50611 -1.769783,0.19088 -3.410931,0.001 -0.09965,-0.0775 0.526137,-0.28258 1.041729,-0.3569 -1.468756,0.19407 -1.400221,-0.28995 -2.837345,0.0532 0.353745,-0.24831 0.729107,-0.41331 1.106575,-0.6242 -1.197252,0.0727 -2.859489,0.69695 -2.346531,0.12872 -1.953245,0.87197 -5.422695,2.09559 -7.369614,3.92125 l -0.06115,-0.40909 c -0.8920091,1.07071 -3.8901487,3.19794 -4.1289681,4.58604 l -0.2388174,0.0554 c -0.4634022,0.78603 -0.7644286,1.67646 -1.1324082,2.48465 -0.6067971,1.03488 -0.8899006,0.39855 -0.8034405,0.56094 -1.1940891,2.42085 -1.7882356,4.45475 -2.3001381,6.12386 0.3648175,0.54563 0.00897,3.28545 0.1465511,5.47804 -0.5988887,10.83063 7.6010541,21.34548 16.5643692,23.77267 1.313763,0.47078 3.267008,0.4539 4.928718,0.50031 -1.9601,-0.56094 -2.213152,-0.29681 -4.123696,-0.96266 -1.377552,-0.6495 -1.679106,-1.39021 -2.655465,-2.2374 l 0.386433,0.68271 c -1.913708,-0.67745 -1.112904,-0.83824 -2.670228,-1.33116 l 0.412792,-0.53826 c -0.620506,-0.0474 -1.643259,-1.04491 -1.92267,-1.59897 l -0.679023,0.0269 c -0.815039,-1.00482 -1.249972,-1.73078 -1.217814,-2.29329 l -0.219311,0.39117 c -0.248308,-0.42648 -3.0002495,-3.77362 -1.5726131,-2.99444 -0.265179,-0.24146 -0.61787,-0.39381 -1.0000839,-1.08918 l 0.2904839,-0.3316 c -0.6858698,-0.884 -1.2641995,-2.01693 -1.2199154,-2.3944 0.3663976,0.49451 0.6205037,0.5873 0.8725018,0.67218 -1.734989,-4.304 -1.8325197,-0.23671 -3.1457546,-4.38097 l 0.2773033,-0.0221 c -0.2124582,-0.32214 -0.3426744,-0.66956 -0.5134846,-1.01169 l 0.1212459,-1.20463 c -1.2483898,-1.4424 -0.3490007,-6.13917 -0.1681701,-8.7145 0.1238959,-1.047 1.0422579,-2.162 1.7397333,-3.91069 l -0.4249164,-0.0727 c 0.8129289,-1.41709 4.6403419,-5.69313 6.4138169,-5.47383 0.858795,-1.07862 -0.1708,-0.004 -0.338984,-0.27519 1.886818,-1.95219 2.479911,-1.37914 3.753078,-1.73078 1.372281,-0.81451 -1.178273,0.31843 -0.527718,-0.31052 2.373944,-0.60573 1.681741,-1.37808 4.777939,-1.68542 0.32686,0.1855 -0.757574,0.2868 -1.029605,0.52772 1.976968,-0.96793 6.257241,-0.74702 9.038704,0.53669 3.224833,1.50829 6.850332,5.96464 6.993729,10.15739 l 0.16291,0.0438 c -0.08223,1.66699 0.25516,3.59493 -0.33055,5.36524 l 0.395921,-0.83876"
           id="path9280"
           style="fill:#a80030;fill-opacity:1;stroke-width:0.527191" />
        <path
           i:knockout="Off"
           fill="#a80030"
           d="m 15.499661,298.41575 -0.111244,0.55197 c 0.518231,0.7038 0.929441,1.46611 1.590013,2.01439 -0.475529,-0.92732 -0.82822,-1.31059 -1.478775,-2.56636"
           id="path9282"
           style="fill:#a80030;fill-opacity:1;stroke-width:0.527191" />
        <path
           i:knockout="Off"
           fill="#a80030"
           d="m 16.723273,298.36831 c -0.274139,-0.30367 -0.435461,-0.6685 -0.617867,-1.0312 0.173968,0.63843 0.530353,1.18723 0.860903,1.74606 l -0.243036,-0.71486"
           id="path9284"
           style="fill:#a80030;fill-opacity:1;stroke-width:0.527191" />
        <path
           i:knockout="Off"
           fill="#a80030"
           d="m 38.382426,293.66048 -0.115448,0.29101 c -0.21193,1.50672 -0.671116,2.99761 -1.373335,4.38043 0.776027,-1.45873 1.276333,-3.05456 1.488791,-4.67144"
           id="path9286"
           style="fill:#a80030;fill-opacity:1;stroke-width:0.527191" />
        <path
           i:knockout="Off"
           fill="#a80030"
           d="m 21.267141,272.45206 c 0.531937,-0.19447 1.30849,-0.107 1.874693,-0.23512 -0.737013,0.0618 -1.470338,0.0986 -2.194173,0.19089 l 0.31948,0.0442"
           id="path9288"
           style="fill:#a80030;fill-opacity:1;stroke-width:0.527191" />
        <path
           i:knockout="Off"
           fill="#a80030"
           d="m 2.5671177,282.39595 c 0.1228398,1.13559 -0.8540509,1.57684 0.2161483,0.82719 0.5746395,-1.29374 -0.2235287,-0.35693 -0.2161483,-0.82719"
           id="path9290"
           style="fill:#a80030;fill-opacity:1;stroke-width:0.527191" />
        <path
           i:knockout="Off"
           fill="#a80030"
           d="m 1.3081834,287.65418 c 0.2472518,-0.75758 0.291536,-1.21202 0.3859045,-1.65118 -0.6816606,0.87198 -0.3142071,1.05808 -0.3859045,1.65118"
           id="path9292"
           style="fill:#a80030;fill-opacity:1;stroke-width:0.527191" />
      </g>
    </g>
  </g>
</svg>
