<?xml version="1.0" encoding="UTF-8" standalone="no"?>
<svg
   xmlns:i="http://ns.adobe.com/AdobeIllustrator/10.0/"
   xmlns:dc="http://purl.org/dc/elements/1.1/"
   xmlns:cc="http://creativecommons.org/ns#"
   xmlns:rdf="http://www.w3.org/1999/02/22-rdf-syntax-ns#"
   xmlns:svg="http://www.w3.org/2000/svg"
   xmlns="http://www.w3.org/2000/svg"
   xmlns:sodipodi="http://sodipodi.sourceforge.net/DTD/sodipodi-0.dtd"
   xmlns:inkscape="http://www.inkscape.org/namespaces/inkscape"
   width="1920"
   height="1080"
   viewBox="0 0 508.00002 285.75001"
   version="1.1"
   id="svg904"
   inkscape:version="1.0.1 (3bc2e813f5, 2020-09-07)"
   sodipodi:docname="session.svg">
  <defs
     id="defs898">
    <rect
       x="-115.72512"
       y="93.831345"
       width="285.29333"
       height="152.85524"
       id="rect3745" />
    <clipPath
       clipPathUnits="userSpaceOnUse"
       id="clipPath2156">
      <path
         style="fill:none;stroke:#000000;stroke-width:0.341174px;stroke-linecap:butt;stroke-linejoin:miter;stroke-opacity:1"
         d="M 481.42303,395.7578 H 259.74748 L 481.42303,214.14111 Z"
         id="path2158"
         sodipodi:nodetypes="cccc" />
    </clipPath>
    <rect
       x="3.5602987"
       y="60.150005"
       width="459.67661"
       height="104.62877"
       id="rect2162" />
    <rect
       x="3.5602987"
       y="60.150005"
       width="459.67661"
       height="104.62877"
       id="rect1703" />
    <filter
       inkscape:collect="always"
       style="color-interpolation-filters:sRGB"
       id="filter3270"
       x="-6.7499997e-05"
       width="1.0001349"
       y="-6.7499997e-05"
       height="1.0001349">
      <feGaussianBlur
         inkscape:collect="always"
         stdDeviation="0.001125"
         id="feGaussianBlur3272" />
    </filter>
    <rect
       x="283.96863"
       y="211.09872"
       width="256.13644"
       height="78.097855"
       id="rect3038" />
    <rect
       x="283.96863"
       y="211.09872"
       width="256.13644"
       height="78.097855"
       id="rect1708" />
    <rect
       x="-15.690787"
       y="180.03075"
       width="302.26273"
       height="31.282705"
       id="rect3195" />
    <rect
       x="-15.690787"
       y="180.03075"
       width="302.26273"
       height="31.282705"
       id="rect1711" />
    <clipPath
       id="clip-path">
      <ellipse
         class="cls-1"
         cx="1393.58"
         cy="483.69"
         rx="43.77"
         ry="50.389999"
         transform="rotate(-46.18,1393.6374,483.68778)"
         id="ellipse3203" />
    </clipPath>
    <rect
       x="283.96863"
       y="211.09872"
       width="256.13644"
       height="78.097855"
       id="rect3735" />
  </defs>
  <sodipodi:namedview
     id="base"
     pagecolor="#ffffff"
     bordercolor="#666666"
     borderopacity="1.0"
     inkscape:pageopacity="0.0"
     inkscape:pageshadow="2"
     inkscape:zoom="0.23984035"
     inkscape:cx="1075.41"
     inkscape:cy="689.21393"
     inkscape:document-units="mm"
     inkscape:current-layer="layer1"
     inkscape:document-rotation="0"
     showgrid="false"
     showguides="true"
     units="px"
     inkscape:window-width="1572"
     inkscape:window-height="832"
     inkscape:window-x="12"
     inkscape:window-y="52"
     inkscape:window-maximized="0" />
  <metadata
     id="metadata901">
    <rdf:RDF>
      <cc:Work
         rdf:about="">
        <dc:format>image/svg+xml</dc:format>
        <dc:type
           rdf:resource="http://purl.org/dc/dcmitype/StillImage" />
        <dc:title></dc:title>
      </cc:Work>
    </rdf:RDF>
  </metadata>
  <g
     inkscape:label="Layer 1"
     inkscape:groupmode="layer"
     id="layer1">
    <g
       id="g5346"
       inkscape:export-xdpi="192"
       inkscape:export-ydpi="192">
      <g
         id="g4925"
         inkscape:export-xdpi="383.99997"
         inkscape:export-ydpi="383.99997"
         transform="matrix(1.9199999,0,0,0.86400003,175.46556,-17.156064)"
         style="fill:#ffffff;fill-opacity:1;stroke:none;stroke-opacity:1">
        <rect
           style="fill:#ffffff;fill-opacity:1;stroke:none;stroke-width:1;stroke-miterlimit:4;stroke-dasharray:none;stroke-opacity:1"
           id="rect1259"
           width="264.58334"
           height="330.72916"
           x="-91.388313"
           y="19.856554" />
      </g>
      <g
         id="g2152"
         transform="matrix(1.1957817,0,0,1.1962335,-60.519294,-187.66874)"
         clip-path="url(#clipPath2156)">
        <path
           d="m 474.62739,344.12879 c 0,3.99161 -3.20785,7.22736 -7.16505,7.22736 -3.9572,0 -7.16505,-3.23575 -7.16505,-7.22736"
           stroke="#44ab96"
           id="path1265"
           style="fill:#ffffff;fill-opacity:1;fill-rule:evenodd;stroke:#a80030;stroke-width:1.61993;stroke-linecap:round;stroke-linejoin:round;stroke-opacity:1" />
        <path
           d="m 474.62739,238.95827 c -4.95547,0 -8.97189,-4.04476 -8.97189,-9.0342 0,-4.98945 4.01642,-9.03419 8.97189,-9.03419"
           stroke="#e53855"
           id="path1267"
           style="fill:#ffffff;fill-opacity:1;fill-rule:evenodd;stroke:#a80030;stroke-width:1.61993;stroke-linecap:round;stroke-linejoin:round;stroke-opacity:1" />
        <path
           d="m 345.28261,228.23014 c 0,4.13563 3.34739,7.48828 7.47657,7.48828 4.12919,0 7.47658,-3.35265 7.47658,-7.48828 v -8.46175"
           stroke="#44ab96"
           id="path1269"
           style="fill:#ffffff;fill-opacity:1;fill-rule:evenodd;stroke:#a80030;stroke-width:1.61993;stroke-linecap:round;stroke-linejoin:round;stroke-opacity:1" />
        <path
           d="m 292.35285,395.59256 c -9.3069,0 -16.85163,-7.50309 -16.85163,-16.75999 0,-9.2569 7.54473,-16.75999 16.85163,-16.75999 h 15.42226"
           stroke="#ffb017"
           id="path1271"
           style="fill:#ffffff;fill-opacity:1;fill-rule:evenodd;stroke:#a80030;stroke-width:1.61993;stroke-linecap:round;stroke-linejoin:round;stroke-opacity:1" />
        <path
           d="m 291.3242,384.12848 c -3.09562,0 -5.60499,-2.42661 -5.60499,-5.42052 0,-2.99391 2.50937,-5.42052 5.60499,-5.42052 h 5.9837"
           stroke="#44ab96"
           id="path1273"
           style="fill:#ffffff;fill-opacity:1;fill-rule:evenodd;stroke:#a80030;stroke-width:1.61993;stroke-linecap:round;stroke-linejoin:round;stroke-opacity:1" />
        <path
           d="m 474.62739,277.21342 v -20.97417 c 0,-4.10729 -3.34801,-7.43682 -7.47658,-7.43682 -4.12856,0 -7.47657,3.32953 -7.47657,7.43682 v 3.24646"
           stroke="#da774a"
           id="path1275"
           style="fill:#ffffff;fill-opacity:1;fill-rule:evenodd;stroke:#a80030;stroke-width:1.61993;stroke-linecap:round;stroke-linejoin:round;stroke-opacity:1" />
        <path
           d="m 359.11427,339.95887 h -22.35958 c -5.63585,0 -10.20472,4.54468 -10.20472,10.15071 0,5.60602 4.56887,10.15071 10.20472,10.15071 h 9.22852 m -25.01941,35.33227 h -1.33291 c -3.93255,0 -7.12061,-3.19223 -7.12061,-7.12817 0,-3.93743 3.18806,-7.12966 7.12061,-7.12966 h 15.89763 c 5.8106,0 10.52103,-4.71563 10.52103,-10.53333 m -22.22952,-77.88716 v 8.01058 c 0,9.75743 7.90085,17.66725 17.64705,17.66725 h 7.02879 c 5.86435,0 10.6184,4.75946 10.6184,10.63047"
           stroke="#da774a"
           id="path1277"
           style="fill:#ffffff;fill-opacity:1;fill-rule:evenodd;stroke:#a80030;stroke-width:1.61993;stroke-linecap:round;stroke-linejoin:round;stroke-opacity:1" />
        <circle
           stroke="#44ab96"
           cx="348.52246"
           cy="268.61536"
           r="4.984385"
           id="circle1279"
           style="fill:#ffffff;fill-opacity:1;fill-rule:evenodd;stroke:#a80030;stroke-width:1.61993;stroke-linecap:round;stroke-linejoin:round;stroke-opacity:1" />
        <ellipse
           stroke="#e53855"
           cx="362.22952"
           cy="368.61459"
           rx="7.2273579"
           ry="7.1650534"
           id="ellipse1281"
           style="fill:#ffffff;fill-opacity:1;fill-rule:evenodd;stroke:#a80030;stroke-width:1.61993;stroke-linecap:round;stroke-linejoin:round;stroke-opacity:1" />
        <circle
           stroke="#44ab96"
           cx="298.18018"
           cy="251.66846"
           r="7.8504062"
           id="circle1283"
           style="fill:#ffffff;fill-opacity:1;fill-rule:evenodd;stroke:#a80030;stroke-width:1.61993;stroke-linecap:round;stroke-linejoin:round;stroke-opacity:1" />
        <path
           d="m 298.24247,268.73997 c 9.66915,0 17.50766,-7.72685 17.50766,-17.25843 0,-9.53159 -7.83851,-17.25843 -17.50766,-17.25843 -9.66914,0 -17.50765,7.72684 -17.50765,17.25843"
           stroke="#ffb017"
           id="path1285"
           style="fill:#ffffff;fill-opacity:1;fill-rule:evenodd;stroke:#a80030;stroke-width:1.61993;stroke-linecap:round;stroke-linejoin:round;stroke-opacity:1" />
        <path
           d="m 438.64142,372.22295 c -2.65992,9.94564 3.09424,20.13137 12.85176,22.75134 9.75751,2.61846 19.82504,-3.32072 22.48496,-13.26637 2.65992,-9.94564 -3.09425,-20.13093 -12.85176,-22.75058"
           stroke="#44ab96"
           id="path1287"
           style="fill:#ffffff;fill-opacity:1;fill-rule:evenodd;stroke:#a80030;stroke-width:1.61993;stroke-linecap:round;stroke-linejoin:round;stroke-opacity:1" />
        <path
           d="m 335.29269,370.79525 c -10.5865,0 -19.16873,-9.39989 -19.16873,-20.99524 0,-4.02631 1.0348,-7.78797 2.82902,-10.98328 m 29.44487,-10.13953 h -13.05877 c -4.17852,0 -8.0452,1.44565 -11.19555,3.89982"
           stroke="#da774a"
           id="path1289"
           style="fill:#ffffff;fill-opacity:1;fill-rule:evenodd;stroke:#a80030;stroke-width:1.61993;stroke-linecap:round;stroke-linejoin:round;stroke-opacity:1" />
        <path
           d="m 316.18626,271.23216 c -3.9572,0 -7.16505,3.20783 -7.16505,7.16506 0,3.95722 3.20785,7.16505 7.16505,7.16505 3.9572,0 7.16505,-3.20783 7.16505,-7.16505 v -7.16506"
           stroke="#44ab96"
           id="path1291"
           style="fill:#ffffff;fill-opacity:1;fill-rule:evenodd;stroke:#a80030;stroke-width:1.61993;stroke-linecap:round;stroke-linejoin:round;stroke-opacity:1" />
        <path
           d="m 318.36693,229.30103 c 0,5.26469 4.24002,9.53263 9.47033,9.53263 5.23031,0 9.47033,-4.26794 9.47033,-9.53263 0,-5.26473 -4.24002,-9.53264 -9.47033,-9.53264 h -9.47033"
           stroke="#e53855"
           id="path1293"
           style="fill:#ffffff;fill-opacity:1;fill-rule:evenodd;stroke:#a80030;stroke-width:1.61993;stroke-linecap:round;stroke-linejoin:round;stroke-opacity:1" />
        <path
           d="m 284.16159,327.62828 c -4.57653,0 -8.28654,-3.6704 -8.28654,-8.19821 0,-4.52782 3.71001,-8.19822 8.28654,-8.19822 4.57656,0 8.28654,3.6704 8.28654,8.19822 v 25.07255"
           stroke="#44ab96"
           id="path1295"
           style="fill:#ffffff;fill-opacity:1;fill-rule:evenodd;stroke:#a80030;stroke-width:1.61993;stroke-linecap:round;stroke-linejoin:round;stroke-opacity:1" />
        <path
           d="m 457.42979,328.05415 c 0,4.19796 3.34846,7.60119 7.47806,7.60119 4.12962,0 7.47657,-3.40323 7.47657,-7.60119 0,-4.19796 -3.34695,-7.60119 -7.47657,-7.60119 h -25.04654"
           stroke="#44ab96"
           id="path1297"
           style="fill:#ffffff;fill-opacity:1;fill-rule:evenodd;stroke:#a80030;stroke-width:1.61993;stroke-linecap:round;stroke-linejoin:round;stroke-opacity:1" />
        <path
           d="m 395.62489,237.06306 c -4.40446,0 -7.97501,3.52054 -7.97501,7.86344 0,4.3429 3.57055,7.86344 7.97501,7.86344 4.40447,0 7.97502,-3.52054 7.97502,-7.86344 v -25.28272"
           stroke="#4484ab"
           id="path1299"
           style="fill:#ffffff;fill-opacity:1;fill-rule:evenodd;stroke:#a80030;stroke-width:1.61993;stroke-linecap:round;stroke-linejoin:round;stroke-opacity:1" />
        <path
           d="m 389.25967,388.36521 c 0,-3.99161 3.21025,-7.22736 7.17012,-7.22736 3.96001,0 7.17012,3.23575 7.17012,7.22736 0,3.9916 -3.21011,7.22735 -7.17012,7.22735 h -11.39671"
           stroke="#44ab96"
           id="path1301"
           style="fill:#ffffff;fill-opacity:1;fill-rule:evenodd;stroke:#a80030;stroke-width:1.61993;stroke-linecap:round;stroke-linejoin:round;stroke-opacity:1" />
        <path
           d="m 411.01418,289.74638 c 3.9572,0 7.16505,3.19172 7.16505,7.12906 0,3.93734 -3.20785,7.12905 -7.16505,7.12905 -3.9572,0 -7.16505,-3.19171 -7.16505,-7.12905 v -26.64015"
           stroke="#da774a"
           id="path1303"
           style="fill:#ffffff;fill-opacity:1;fill-rule:evenodd;stroke:#a80030;stroke-width:1.61993;stroke-linecap:round;stroke-linejoin:round;stroke-opacity:1" />
        <path
           d="m 283.0401,290.51028 c -3.95715,0 -7.16505,3.16018 -7.16505,7.05863 0,3.89844 3.2079,7.05863 7.16505,7.05863 3.95716,0 7.16505,-3.16019 7.16505,-7.05863 v -28.82894"
           stroke="#da774a"
           id="path1305"
           style="fill:#ffffff;fill-opacity:1;fill-rule:evenodd;stroke:#a80030;stroke-width:1.61993;stroke-linecap:round;stroke-linejoin:round;stroke-opacity:1" />
        <path
           d="m 361.07114,268.73997 c 0,-7.08841 -5.65445,-12.83479 -12.62943,-12.83479 -6.97499,0 -12.62943,5.74638 -12.62943,12.83479 0,7.08841 5.65444,12.83479 12.62943,12.83479 h 33.1023"
           stroke="#ffb017"
           id="path1307"
           style="fill:#ffffff;fill-opacity:1;fill-rule:evenodd;stroke:#a80030;stroke-width:1.61993;stroke-linecap:round;stroke-linejoin:round;stroke-opacity:1" />
        <path
           d="m 461.99736,310.23497 c 6.97633,0 12.63003,-5.74638 12.63003,-12.83479 0,-7.0884 -5.6537,-12.83479 -12.63003,-12.83479 h -33.1017"
           stroke="#44ab96"
           id="path1309"
           style="fill:#ffffff;fill-opacity:1;fill-rule:evenodd;stroke:#a80030;stroke-width:1.61993;stroke-linecap:round;stroke-linejoin:round;stroke-opacity:1" />
        <path
           d="m 413.19485,241.51277 c 0,-6.64117 5.32573,-12.02483 11.89542,-12.02483 h 12.22134 c 6.57018,0 11.89542,5.38366 11.89542,12.02483 v 0 c 0,6.64116 -5.32524,12.02483 -11.89542,12.02483 h -12.22134 c -6.56969,0 -11.89542,-5.38367 -11.89542,-12.02483 z"
           stroke="#da774a"
           id="path1311"
           style="fill:#ffffff;fill-opacity:1;fill-rule:evenodd;stroke:#a80030;stroke-width:1.61993;stroke-linecap:round;stroke-linejoin:round;stroke-opacity:1" />
        <path
           d="m 308.46046,328.17876 c -4.09477,0 -7.41427,-3.31392 -7.41427,-7.40181 V 299.693 c 0,-4.08789 3.3195,-7.40181 7.41427,-7.40181 v 0 c 4.09478,0 7.41428,3.31392 7.41428,7.40181 v 21.08395 c 0,4.08789 -3.3195,7.40181 -7.41428,7.40181 z"
           stroke="#ffb017"
           id="path1313"
           style="fill:#ffffff;fill-opacity:1;fill-rule:evenodd;stroke:#a80030;stroke-width:1.61993;stroke-linecap:round;stroke-linejoin:round;stroke-opacity:1" />
        <path
           d="m 378.42877,318.77073 v -11.13188 c 0,-3.17715 2.59421,-5.75272 5.79434,-5.75272 v 0 c 3.20014,0 5.79435,2.57557 5.79435,5.75272 v 22.26377 c 0,3.17714 -2.59421,5.75272 -5.79435,5.75272 v 0 0 c -3.20013,0 -5.79434,-2.57558 -5.79434,-5.75272 v -2.68959"
           stroke="#e53855"
           id="path1315"
           style="fill:#ffffff;fill-opacity:1;fill-rule:evenodd;stroke:#a80030;stroke-width:1.61993;stroke-linecap:round;stroke-linejoin:round;stroke-opacity:1" />
        <path
           d="m 389.14519,259.26098 v 0.97051 c 0,5.52493 -4.49107,10.0038 -10.03107,10.0038 v 0 c -5.54,0 -10.03108,-4.47887 -10.03108,-10.0038 v -30.45931 c 0,-5.52494 4.49108,-10.00379 10.03108,-10.00379 v 0 c 5.54,0 10.03107,4.47885 10.03107,10.00379 v 0.29862"
           stroke="#ffb017"
           id="path1317"
           style="fill:#ffffff;fill-opacity:1;fill-rule:evenodd;stroke:#a80030;stroke-width:1.61993;stroke-linecap:round;stroke-linejoin:round;stroke-opacity:1" />
        <path
           d="m 284.19274,338.27214 h -0.59947 c -4.26265,0 -7.71822,3.4589 -7.71822,7.72579 v 0 c 0,4.2669 3.45556,7.7258 7.71822,7.7258 h 17.83433 c 4.2627,0 7.71822,-3.4589 7.71822,-7.7258 v 0 c 0,-4.26689 -3.45552,-7.72579 -7.71822,-7.72579 h -0.59948"
           stroke="#ffb017"
           id="path1319"
           style="fill:#ffffff;fill-opacity:1;fill-rule:evenodd;stroke:#a80030;stroke-width:1.61993;stroke-linecap:round;stroke-linejoin:round;stroke-opacity:1" />
        <path
           d="m 368.83382,301.88613 v 28.86416 c 0,8.62753 7.05738,15.62147 15.76312,15.62147 8.70575,0 15.76312,-6.99394 15.76312,-15.62147 v -6.81959"
           stroke="#44ab96"
           id="path1321"
           style="fill:#ffffff;fill-opacity:1;fill-rule:evenodd;stroke:#a80030;stroke-width:1.61993;stroke-linecap:round;stroke-linejoin:round;stroke-opacity:1" />
        <path
           d="m 337.18298,350.7331 h 25.89408 c 9.85492,0 17.8439,8.03373 17.8439,17.94379 0,9.90945 -7.98898,17.94378 -17.8439,17.94378 h -7.78984"
           stroke="#44ab96"
           id="path1323"
           style="fill:#ffffff;fill-opacity:1;fill-rule:evenodd;stroke:#a80030;stroke-width:1.61993;stroke-linecap:round;stroke-linejoin:round;stroke-opacity:1" />
        <path
           d="m 348.27324,306.99512 h -6.12912 c -4.11638,0 -7.45333,-3.34741 -7.45333,-7.47657 0,-4.12917 3.33695,-7.47658 7.45333,-7.47658 h 12.25823 c 4.11638,0 7.45334,3.34741 7.45334,7.47658 v 0.66422 c 0,3.76236 -3.04053,6.81235 -6.79123,6.81235"
           stroke="#4484ab"
           id="path1325"
           style="fill:#ffffff;fill-opacity:1;fill-rule:evenodd;stroke:#a80030;stroke-width:1.61993;stroke-linecap:round;stroke-linejoin:round;stroke-opacity:1" />
        <path
           d="m 411.01418,278.45952 h 7.00074 c 4.70139,0 8.51316,-3.59849 8.51316,-8.03732 0,-4.43883 -3.81177,-8.03732 -8.51316,-8.03732 h -14.00148 c -4.70168,0 -8.51316,3.59849 -8.51316,8.03732"
           stroke="#44ab96"
           id="path1327"
           style="fill:#ffffff;fill-opacity:1;fill-rule:evenodd;stroke:#a80030;stroke-width:1.61993;stroke-linecap:round;stroke-linejoin:round;stroke-opacity:1" />
        <path
           d="m 359.36349,244.93953 h -16.78257 c -10.62023,0 -19.22961,8.64735 -19.22961,19.31449"
           stroke="#44ab96"
           id="path1329"
           style="fill:#ffffff;fill-opacity:1;fill-rule:evenodd;stroke:#a80030;stroke-width:1.61993;stroke-linecap:round;stroke-linejoin:round;stroke-opacity:1" />
        <path
           d="m 455.87364,370.02769 c 3.95721,0 7.16506,3.185 7.16506,7.11271 0,3.9277 -3.20785,7.11269 -7.16506,7.11269 -3.9572,0 -7.16505,-3.18499 -7.16505,-7.11269 v -46.34484"
           stroke="#e53855"
           id="path1331"
           style="fill:#ffffff;fill-opacity:1;fill-rule:evenodd;stroke:#a80030;stroke-width:1.61993;stroke-linecap:round;stroke-linejoin:round;stroke-opacity:1" />
        <path
           d="m 402.2292,374.65815 c 0,-7.29476 5.83754,-13.20862 13.03849,-13.20862 h 22.97369"
           stroke="#44ab96"
           id="path1333"
           style="fill:#ffffff;fill-opacity:1;fill-rule:evenodd;stroke:#a80030;stroke-width:1.61993;stroke-linecap:round;stroke-linejoin:round;stroke-opacity:1" />
        <path
           d="m 368.33539,292.04197 h 12.25823 c 8.23276,0 14.90666,-6.69483 14.90666,-14.95316"
           stroke="#4484ab"
           id="path1335"
           style="fill:#ffffff;fill-opacity:1;fill-rule:evenodd;stroke:#a80030;stroke-width:1.61993;stroke-linecap:round;stroke-linejoin:round;stroke-opacity:1" />
        <path
           d="m 439.86131,331.04478 v 6.69841 c 0,6.76114 -5.48304,12.24225 -12.24759,12.24225 h -9.5591"
           stroke="#4484ab"
           id="path1337"
           style="fill:#ffffff;fill-opacity:1;fill-rule:evenodd;stroke:#a80030;stroke-width:1.61993;stroke-linecap:round;stroke-linejoin:round;stroke-opacity:1" />
        <path
           d="m 463.0387,297.6494 h -10.46806 c -7.57012,0 -13.70621,6.19268 -13.70621,13.83167"
           stroke="#da774a"
           id="path1339"
           style="fill:#ffffff;fill-opacity:1;fill-rule:evenodd;stroke:#a80030;stroke-width:1.61993;stroke-linecap:round;stroke-linejoin:round;stroke-opacity:1" />
        <path
           d="M 302.4169,395.59256 V 384.2384 c 0,-6.53747 5.1059,-12.01393 11.96252,-13.44315"
           stroke="#44ab96"
           id="path1341"
           style="fill:#ffffff;fill-opacity:1;fill-rule:evenodd;stroke:#a80030;stroke-width:1.61993;stroke-linecap:round;stroke-linejoin:round;stroke-opacity:1" />
        <path
           d="m 280.79713,260.26652 c 0,1.16049 0,15.76903 0,22.92817"
           stroke="#44ab96"
           id="path1343"
           style="fill:#ffffff;fill-opacity:1;fill-rule:evenodd;stroke:#a80030;stroke-width:1.61993;stroke-linecap:round;stroke-linejoin:round;stroke-opacity:1" />
        <path
           d="m 410.88957,312.97639 c 0,0.9586 0,13.02651 0,18.94066"
           stroke="#44ab96"
           id="path1345"
           style="fill:#ffffff;fill-opacity:1;fill-rule:evenodd;stroke:#a80030;stroke-width:1.61993;stroke-linecap:round;stroke-linejoin:round;stroke-opacity:1" />
        <path
           d="m 391.69969,364.44016 c 0,0.39105 0,5.31297 0,7.72579"
           stroke="#44ab96"
           id="path1347"
           style="fill:#ffffff;fill-opacity:1;fill-rule:evenodd;stroke:#a80030;stroke-width:1.61993;stroke-linecap:round;stroke-linejoin:round;stroke-opacity:1" />
        <path
           d="m 428.89566,292.78963 v 17.73576 c 0,2.79064 -2.27977,5.05113 -5.09215,5.05113 -2.81236,0 -5.09213,2.26227 -5.09213,5.05307 v 1.04804 c 0,2.79065 2.27977,5.05308 5.09213,5.05308 2.81238,0 5.09215,2.26228 5.09215,5.05307 v 1.16033 c 0,3.4316 -2.80332,6.21341 -6.26145,6.21341 h -3.24388 -4.75266 m -20.50809,16.55997 h 3.33655 c 6.89474,0 12.48397,-5.58238 12.48397,-12.46868"
           stroke="#ffb017"
           id="path1349"
           style="fill:#ffffff;fill-opacity:1;fill-rule:evenodd;stroke:#a80030;stroke-width:1.61993;stroke-linecap:round;stroke-linejoin:round;stroke-opacity:1" />
        <path
           d="m 459.79885,268.23166 v 2.52738 c 0,3.56469 -2.89885,6.45438 -6.47255,6.45438 v 0 c -3.57519,0 -6.47403,-2.88969 -6.47403,-6.45438 v -2.09344 c 0,-3.53761 -2.87636,-6.40533 -6.42307,-6.40533 v 0 c -3.54819,0 -6.42454,2.86772 -6.42454,6.40533 v 2.57643"
           stroke="#e53855"
           id="path1351"
           style="fill:#ffffff;fill-opacity:1;fill-rule:evenodd;stroke:#a80030;stroke-width:1.61993;stroke-linecap:round;stroke-linejoin:round;stroke-opacity:1" />
        <path
           d="m 410.95188,379.8876 c 0,-5.02108 4.07267,-9.09235 9.0965,-9.09235 v 0 c 5.02337,0 9.0965,4.07127 9.0965,9.09235 v 6.61261 c 0,5.02108 -4.07313,9.09235 -9.0965,9.09235 v 0 c -5.02383,0 -9.0965,-4.07127 -9.0965,-9.09235 z"
           stroke="#4484ab"
           id="path1353"
           style="fill:#ffffff;fill-opacity:1;fill-rule:evenodd;stroke:#a80030;stroke-width:1.61993;stroke-linecap:round;stroke-linejoin:round;stroke-opacity:1" />
      </g>
      <g
         id="g1299"
         transform="matrix(0.65893539,0,0,0.65918439,32.887283,25.736757)">
        <g
           id="g1153">
          <g
             aria-label="MiniDebConf"
             transform="scale(0.95132969,1.0511603)"
             id="text8338"
             style="font-style:normal;font-variant:normal;font-weight:normal;font-stretch:normal;font-size:10.9731px;line-height:1.25;font-family:Monoton;-inkscape-font-specification:Monoton;letter-spacing:0px;word-spacing:0px;fill:#241c1c;fill-opacity:1;stroke:none;stroke-width:0.274329">
            <path
               d="m 92.665899,17.326422 0.925861,-1.748848 v 9.515793 h -0.925861 z m 1.851722,-3.549133 0.925861,-1.748849 v 13.064927 h -0.925861 z m 1.851722,-3.497697 0.925861,-1.7617079 V 25.093367 H 96.369343 Z M 90.158359,16.88921 89.631133,15.924772 96.009286,3.7985651 h 1.041593 z M 89.091047,14.870319 88.550962,13.893021 93.90038,3.7985651 h 1.054453 z m -6.198124,0.810128 0.925861,1.748849 v 7.664071 h -0.925861 z m -1.851722,-3.523415 0.925861,1.748848 V 25.093367 H 81.041201 Z M 79.189479,8.6336167 80.11534,10.395324 V 25.093367 H 79.189479 Z M 86.673521,19.538201 H 85.631928 L 78.263618,5.5602728 V 25.093367 H 77.337757 V 3.7985651 h 1.041594 z m 2.096047,0 H 87.715115 L 79.433803,3.7985651 h 1.054453 z M 98.221065,5.5602728 90.852755,19.538201 H 89.798302 L 81.52985,3.7985651 h 1.041593 L 90.338388,18.560903 98.092473,3.7985651 h 1.054453 V 25.093367 h -0.925861 z"
               style="font-style:normal;font-variant:normal;font-weight:normal;font-stretch:normal;font-size:26.3356px;font-family:Monoton;-inkscape-font-specification:Monoton;fill:#241c1c;fill-opacity:1;stroke-width:0.274329"
               id="path1089" />
            <path
               d="m 107.14534,6.5761479 h 0.92586 V 25.093367 h -0.92586 z m -1.85173,0 h 0.92586 V 25.093367 h -0.92586 z m -1.85172,0 h 0.92586 V 25.093367 h -0.92586 z m -1.85172,0 h 0.92586 V 25.093367 h -0.92586 z"
               style="font-style:normal;font-variant:normal;font-weight:normal;font-stretch:normal;font-size:26.3356px;font-family:Monoton;-inkscape-font-specification:Monoton;fill:#241c1c;fill-opacity:1;stroke-width:0.274329"
               id="path1091" />
            <path
               d="m 125.09675,17.622183 -0.92586,-1.684552 V 6.5761479 h 0.92586 z m 1.85172,3.201936 -0.92586,-1.56882 V 6.5761479 h 0.92586 z m -12.75631,-6.776788 0.92586,1.684553 v 9.361483 h -0.92586 z m -1.85172,-3.330527 0.92586,1.697411 v 12.679152 h -0.92586 z m 0.32148,-4.1406561 h 1.08017 l 10.72456,18.5172191 h -1.08017 z m 2.18606,0 h 1.09303 l 10.7117,18.5172191 h -1.10589 z m 2.1732,0 h 1.08017 l 9.77298,16.9098211 V 6.5761479 h 0.92586 V 25.093367 h -1.09303 z m -5.6066,1.5945383 V 25.093367 h -0.92586 V 6.5761479 h 1.10589 l 10.68598,18.5172191 h -1.06731 z"
               style="font-style:normal;font-variant:normal;font-weight:normal;font-stretch:normal;font-size:26.3356px;font-family:Monoton;-inkscape-font-specification:Monoton;fill:#241c1c;fill-opacity:1;stroke-width:0.274329"
               id="path1093" />
            <path
               d="m 136.77289,6.5761479 h 0.92586 V 25.093367 h -0.92586 z m -1.85173,0 h 0.92586 V 25.093367 h -0.92586 z m -1.85172,0 h 0.92586 V 25.093367 h -0.92586 z m -1.85172,0 h 0.92586 V 25.093367 h -0.92586 z"
               style="font-style:normal;font-variant:normal;font-weight:normal;font-stretch:normal;font-size:26.3356px;font-family:Monoton;-inkscape-font-specification:Monoton;fill:#241c1c;fill-opacity:1;stroke-width:0.274329"
               id="path1095" />
            <path
               d="M 145.67144,19.538201 V 9.3537307 q 0,0 6.31385,0 1.53025,0 2.62328,1.5045243 1.10589,1.491665 1.10589,3.587711 0,2.108905 -1.10589,3.60057 -1.09303,1.491665 -2.62328,1.491665 z m 0.92586,-0.925861 h 5.38799 q 1.14447,0 1.9546,-1.221622 0.82299,-1.221622 0.82299,-2.944752 0,-1.735989 -0.82299,-2.944752 -0.81013,-1.221622 -1.9546,-1.221622 h -5.38799 z m -1.85172,1.851722 h 7.23971 q 1.91602,0 3.29195,-1.761708 1.3888,-1.774566 1.3888,-4.256388 0,-1.633116 -0.64296,-3.021907 -0.6301,-1.388792 -1.71027,-2.1860609 -1.06732,-0.8101283 -2.32752,-0.8101283 h -7.23971 z m -0.92586,0.925861 V 7.5020089 h 8.16557 q 1.50453,0 2.80331,0.9258609 1.29877,0.9258609 2.05746,2.5332582 0.77156,1.594538 0.77156,3.484838 0,1.87744 -0.77156,3.484838 -0.75869,1.607397 -2.05746,2.533258 -1.29878,0.925861 -2.80331,0.925861 z m -0.92587,0.925861 h 9.09144 q 1.76171,0 3.26624,-1.054453 1.51738,-1.054453 2.41752,-2.867597 0.90014,-1.813144 0.90014,-3.947768 0,-2.121765 -0.90014,-3.934909 -0.90014,-1.8260036 -2.41752,-2.8804563 -1.51739,-1.0544528 -3.26624,-1.0544528 h -9.09144 z m -0.92586,0.925861 V 5.650287 h 10.0173 q 2.00604,0 3.74203,1.1830445 1.73599,1.1701854 2.76472,3.2019355 1.02873,2.031751 1.02873,4.410699 0,2.378948 -1.02873,4.410698 -1.02873,2.031751 -2.76472,3.214795 -1.73599,1.170186 -3.74203,1.170186 z m -0.92586,0.925861 h 10.94316 q 1.68456,0 3.25338,-0.771551 1.56882,-0.771551 2.71328,-2.070328 1.14447,-1.298777 1.82601,-3.099062 0.69439,-1.813145 0.69439,-3.780599 0,-1.967455 -0.69439,-3.76774 -0.68154,-1.8002849 -1.82601,-3.099062 -1.14446,-1.3116364 -2.71328,-2.0831871 -1.56882,-0.7715508 -3.25338,-0.7715508 h -10.94316 z m 10.94316,0.925861 H 140.11627 V 3.7985651 h 11.86902 q 2.50754,0 4.68075,1.427369 2.1732,1.4273689 3.45912,3.8834722 1.29877,2.4561037 1.29877,5.3365597 0,2.160342 -0.77155,4.140656 -0.75869,1.967454 -2.03175,3.394823 -1.27306,1.427369 -3.02191,2.276075 -1.73599,0.835847 -3.61343,0.835847 z"
               style="font-style:normal;font-variant:normal;font-weight:normal;font-stretch:normal;font-size:26.3356px;font-family:Monoton;-inkscape-font-specification:Monoton;fill:#241c1c;fill-opacity:1;stroke-width:0.274329"
               id="path1097" />
            <path
               d="m 168.08499,25.093367 h -0.92586 V 6.5761479 h 0.92586 z m -1.85172,0 h -0.92586 V 6.5761479 h 0.92586 z m -1.85172,0 h -0.92587 V 6.5761479 h 0.92587 z m 5.55516,-4.629305 h 8.85998 v 0.925861 h -8.85998 v 0.925861 h 8.85998 v 0.925861 h -8.85998 v 0.925861 h 8.85998 v 0.925861 h -9.78584 V 6.5761479 h 9.78584 v 0.925861 h -8.85998 v 0.9258609 h 8.85998 v 0.9258609 h -8.85998 v 0.9258613 h 8.85998 v 0.925861 h -8.85998 v 2.301793 h 8.34561 v 0.925861 h -8.34561 v 0.925861 h 8.34561 v 0.925861 h -8.34561 v 0.925861 h 8.34561 v 0.92586 h -8.34561 z"
               style="font-style:normal;font-variant:normal;font-weight:normal;font-stretch:normal;font-size:26.3356px;font-family:Monoton;-inkscape-font-specification:Monoton;fill:#241c1c;fill-opacity:1;stroke-width:0.274329"
               id="path1099" />
            <path
               d="m 195.52647,15.731884 -0.0257,-0.01286 q 1.45308,-1.41451 1.45308,-3.44626 0,-1.928877 -1.44022,-3.3433872 -1.42737,-1.4273689 -3.38197,-1.4273689 H 181.94718 V 25.093367 h -0.92586 V 6.5761479 h 11.11033 q 1.51738,0 2.84188,0.78441 1.33735,0.7715508 2.12176,2.0960463 0.78441,1.3116368 0.78441,2.8161608 0,2.057468 -1.10588,3.536274 1.10588,1.530242 1.10588,3.369105 0,1.761708 -0.79726,3.111921 -0.79727,1.337355 -2.09605,2.018892 -1.28592,0.681536 -2.85474,0.681536 h -5.85093 v -0.925861 h 5.85093 q 1.98032,0 3.39482,-1.40165 1.42737,-1.41451 1.42737,-3.484838 0,-0.951579 -0.41149,-1.87744 -0.41149,-0.925861 -1.02873,-1.555961 0,-0.01286 0.0128,-0.01286 z m -3.39482,4.629305 h -5.85093 v 0.92586 h 5.85093 q 0.84871,0 1.44023,-0.565803 0.60438,-0.578664 0.60438,-1.543102 0,-0.835847 -0.61724,-1.465946 -0.61724,-0.642959 -1.42737,-0.642959 h -5.86378 v 0.92586 h 5.86378 q 0.43721,0 0.77155,0.360057 0.3472,0.360058 0.3472,0.822988 0,0.565804 -0.32148,0.874424 -0.32148,0.308621 -0.79727,0.308621 z m 0,1.851721 h -5.85093 v 0.925861 h 5.85093 q 1.59454,0 2.73901,-1.131607 1.15732,-1.144467 1.15732,-2.82902 0,-1.067312 -0.57866,-2.006032 -0.5658,-0.951579 -1.50452,-1.465947 0.93872,-0.488648 1.50452,-1.388791 0.57866,-0.913002 0.57866,-2.044609 0,-1.543102 -1.17018,-2.687569 -1.15733,-1.1573262 -2.72615,-1.1573262 h -9.25861 V 25.093367 h 0.92586 V 9.3537307 h 8.33275 q 1.18305,0 2.07033,0.8872833 0.90014,0.874424 0.90014,2.031751 0,1.285917 -0.87442,2.121764 -0.87443,0.822988 -2.09605,0.822988 h -2.82902 -3.02191 v 0.925861 h 3.02191 2.82902 q 1.18305,0 2.07033,0.913001 0.90014,0.913002 0.90014,2.121765 0,1.337355 -0.87442,2.186061 -0.87443,0.848705 -2.09605,0.848705 z m 0,-8.847115 h -5.85093 v 0.925861 h 5.85093 q 0.86157,0 1.45309,-0.540086 0.59152,-0.552945 0.59152,-1.478805 0,-0.78441 -0.61724,-1.388792 -0.61724,-0.604381 -1.42737,-0.604381 h -7.40689 v 14.813775 h 0.92586 V 11.205453 h 6.48103 q 0.43721,0 0.77155,0.334338 0.3472,0.32148 0.3472,0.732974 0,0.527226 -0.32148,0.810128 -0.32148,0.282902 -0.79727,0.282902 z"
               style="font-style:normal;font-variant:normal;font-weight:normal;font-stretch:normal;font-size:26.3356px;font-family:Monoton;-inkscape-font-specification:Monoton;fill:#241c1c;fill-opacity:1;stroke-width:0.274329"
               id="path1101" />
            <path
               d="m 216.07544,11.076861 -0.75869,0.501508 q -0.69439,-1.028735 -1.81314,-1.6202568 -1.10589,-0.6043815 -2.40467,-0.6043815 -2.1089,0 -3.60057,1.4916653 -1.49166,1.491664 -1.49166,3.60057 0,2.108905 1.49166,3.60057 1.49167,1.491665 3.60057,1.491665 1.29878,0 2.40467,-0.604381 1.11875,-0.604382 1.81314,-1.633116 l 0.74583,0.540085 q -0.82298,1.208763 -2.13462,1.916018 -1.31164,0.707255 -2.82902,0.707255 -1.22162,0 -2.34037,-0.47579 -1.10589,-0.475789 -1.91602,-1.285918 -0.81013,-0.810128 -1.28592,-1.916017 -0.47579,-1.118749 -0.47579,-2.340371 0,-1.221622 0.47579,-2.327512 0.47579,-1.118748 1.28592,-1.928877 0.81013,-0.8101279 1.91602,-1.2859175 1.11875,-0.4757897 2.34037,-0.4757897 1.53024,0 2.84188,0.7201141 1.31164,0.7072549 2.13462,1.9288771 z m 1.53025,-1.054453 -0.77156,0.501508 q -0.95157,-1.3887913 -2.46896,-2.1989196 -1.50452,-0.8229875 -3.26623,-0.8229875 -1.8903,0 -3.48484,0.9387201 -1.59454,0.9258609 -2.53326,2.520399 -0.92586,1.594538 -0.92586,3.484838 0,1.890299 0.92586,3.484838 0.93872,1.594538 2.53326,2.533258 1.59454,0.925861 3.48484,0.925861 1.76171,0 3.27909,-0.822988 1.51738,-0.822987 2.46896,-2.224638 l 0.7587,0.527227 q -1.08018,1.594538 -2.80331,2.520399 -1.71027,0.925861 -3.70344,0.925861 -2.13462,0 -3.94777,-1.054453 -1.81314,-1.054453 -2.86759,-2.867597 -1.05446,-1.813144 -1.05446,-3.947768 0,-2.134624 1.05446,-3.947768 1.05445,-1.8131446 2.86759,-2.8675973 1.81315,-1.0544528 3.94777,-1.0544528 1.99317,0 3.70344,0.925861 1.72313,0.9258609 2.80331,2.5203991 z m 1.5431,-1.0287343 -0.77155,0.501508 Q 217.16847,7.7206149 215.2396,6.6918806 213.32358,5.650287 211.09894,5.650287 q -1.78743,0 -3.42054,0.6943957 -1.63312,0.6943957 -2.81616,1.8774402 -1.17019,1.1701854 -1.86458,2.8033011 -0.6944,1.633116 -0.6944,3.420542 0,1.787426 0.6944,3.420542 0.69439,1.633115 1.86458,2.81616 1.18304,1.170185 2.81616,1.864581 1.63311,0.694396 3.42054,0.694396 2.2375,0 4.15352,-1.041594 1.91601,-1.041593 3.12478,-2.81616 l 0.74583,0.552945 q -1.33736,1.954595 -3.45912,3.099062 -2.10891,1.131608 -4.56501,1.131608 -2.63613,0 -4.87363,-1.298777 -2.2375,-1.311637 -3.54913,-3.549134 -1.29878,-2.237497 -1.29878,-4.873629 0,-2.636132 1.29878,-4.8736292 1.31163,-2.2374973 3.54913,-3.5362744 2.2375,-1.3116363 4.87363,-1.3116363 2.46896,0 4.59073,1.1573261 2.12176,1.144467 3.45912,3.1119215 z m 1.51738,-1.0544527 -0.77155,0.501508 q -1.46595,-2.147483 -3.79346,-3.3948234 -2.31465,-1.2473405 -5.00222,-1.2473405 -2.16034,0 -4.14066,0.8487059 -1.96745,0.8358467 -3.39482,2.2632156 -1.42737,1.427369 -2.27607,3.4076824 -0.83585,1.967455 -0.83585,4.127797 0,2.160342 0.83585,4.140656 0.8487,1.967454 2.27607,3.394823 1.42737,1.427369 3.39482,2.276075 1.98032,0.835847 4.14066,0.835847 2.68757,0 5.01508,-1.2602 2.32751,-1.2602 3.79346,-3.407683 l 0.74583,0.565804 q -1.59454,2.314653 -4.11494,3.677726 -2.5204,1.350214 -5.43943,1.350214 -2.35323,0 -4.50071,-0.925861 -2.13463,-0.913002 -3.69059,-2.456104 -1.5431,-1.55596 -2.46896,-3.690584 -0.913,-2.147483 -0.913,-4.500713 0,-2.35323 0.913,-4.4878538 0.92586,-2.147483 2.46896,-3.6905846 1.55596,-1.5559607 3.69059,-2.4689625 2.14748,-0.9258609 4.50071,-0.9258609 2.93189,0 5.45229,1.363073 2.5204,1.3630731 4.11494,3.7034438 z"
               style="font-style:normal;font-variant:normal;font-weight:normal;font-stretch:normal;font-size:26.3356px;font-family:Monoton;-inkscape-font-specification:Monoton;fill:#241c1c;fill-opacity:1;stroke-width:0.274329"
               id="path1103" />
            <path
               d="m 229.51329,13.224344 q -1.08017,1.080171 -1.08017,2.610413 0,1.530243 1.08017,2.623273 1.09303,1.080171 2.62327,1.080171 1.53024,0 2.61041,-1.080171 1.09303,-1.09303 1.09303,-2.623273 0,-1.530242 -1.09303,-2.610413 -1.08017,-1.09303 -2.61041,-1.09303 -1.53024,0 -2.62327,1.09303 z m -0.65582,5.889504 q -1.35021,-1.363073 -1.35021,-3.279091 0,-1.916017 1.35021,-3.266231 1.36307,-1.363073 3.27909,-1.363073 1.91602,0 3.26623,1.363073 1.36307,1.350214 1.36307,3.266231 0,1.916018 -1.36307,3.279091 -1.35021,1.350214 -3.26623,1.350214 -1.91602,0 -3.27909,-1.350214 z m -0.65582,-7.201141 q -1.62026,1.633116 -1.62026,3.92205 0,2.288934 1.62026,3.92205 1.63312,1.633116 3.93491,1.633116 2.30179,0 3.92205,-1.633116 1.63312,-1.633116 1.63312,-3.92205 0,-2.288934 -1.63312,-3.92205 -1.62026,-1.633115 -3.92205,-1.633115 -2.30179,0 -3.93491,1.633115 z m -1.68455,7.175423 q -0.86157,-1.491665 -0.86157,-3.253373 0,-1.761707 0.86157,-3.253372 0.87442,-1.491665 2.36609,-2.35323 1.49166,-0.8744243 3.25337,-0.8744243 1.76171,0 3.25337,0.8744243 1.49167,0.861565 2.35323,2.35323 0.87443,1.491665 0.87443,3.253372 0,1.761708 -0.87443,3.253373 -0.86156,1.491665 -2.35323,2.366089 -1.49166,0.861565 -3.25337,0.861565 -1.76171,0 -3.25337,-0.861565 -1.49167,-0.874424 -2.36609,-2.366089 z m -1.20876,-6.12097 q -0.57867,1.363073 -0.57867,2.867597 0,1.504524 0.57867,2.880457 0.59152,1.363073 1.58167,2.366089 1.00302,0.990156 2.36609,1.581679 1.37594,0.578663 2.88046,0.578663 1.50452,0 2.8676,-0.578663 1.37593,-0.591523 2.36609,-1.581679 1.00301,-1.003016 1.58168,-2.366089 0.59152,-1.375933 0.59152,-2.880457 0,-1.504524 -0.59152,-2.867597 -0.57867,-1.375932 -1.58168,-2.366089 -0.99016,-1.0030158 -2.36609,-1.5816789 -1.36308,-0.5915223 -2.8676,-0.5915223 -1.50452,0 -2.88046,0.5915223 -1.36307,0.5786631 -2.36609,1.5816789 -0.99015,0.990157 -1.58167,2.366089 z m -0.84871,6.108111 q -0.65582,-1.543102 -0.65582,-3.240514 0,-1.697411 0.65582,-3.240513 0.66868,-1.543102 1.77457,-2.648991 1.11875,-1.1187486 2.66185,-1.7745668 1.5431,-0.6686773 3.24051,-0.6686773 1.69741,0 3.24051,0.6686773 1.5431,0.6558182 2.64899,1.7745668 1.11875,1.105889 1.77457,2.648991 0.66868,1.543102 0.66868,3.240513 0,1.697412 -0.66868,3.240514 -0.65582,1.543101 -1.77457,2.66185 -1.10589,1.105889 -2.64899,1.774567 -1.5431,0.655818 -3.24051,0.655818 -1.69741,0 -3.24051,-0.655818 -1.5431,-0.668678 -2.66185,-1.774567 -1.10589,-1.118749 -1.77457,-2.66185 z m -0.84871,-6.828225 q -0.73297,1.710271 -0.73297,3.587711 0,1.877441 0.73297,3.600571 0.73298,1.71027 1.96746,2.957611 1.24734,1.234481 2.95761,1.967454 1.72313,0.732974 3.60057,0.732974 1.87744,0 3.58771,-0.732974 1.72313,-0.732973 2.95761,-1.967454 1.24734,-1.247341 1.98032,-2.957611 0.73297,-1.72313 0.73297,-3.600571 0,-1.87744 -0.73297,-3.587711 -0.73298,-1.72313 -1.98032,-2.9576112 -1.23448,-1.2473404 -2.95761,-1.9803136 -1.71027,-0.7329733 -3.58771,-0.7329733 -1.87744,0 -3.60057,0.7329733 -1.71027,0.7329732 -2.95761,1.9803136 -1.23448,1.2344812 -1.96746,2.9576112 z m -0.8487,7.548339 q -0.81013,-1.8903 -0.81013,-3.960628 0,-2.070328 0.81013,-3.947768 0.81013,-1.8902993 2.1732,-3.2533723 1.36307,-1.3630731 3.24051,-2.1732014 1.8903,-0.8101283 3.96063,-0.8101283 2.07033,0 3.94777,0.8101283 1.8903,0.8101283 3.25337,2.1732014 1.36307,1.363073 2.1732,3.2533723 0.81013,1.87744 0.81013,3.947768 0,2.070328 -0.81013,3.960628 -0.81013,1.87744 -2.1732,3.240513 -1.36307,1.363073 -3.25337,2.173201 -1.87744,0.810129 -3.94777,0.810129 -2.07033,0 -3.96063,-0.810129 -1.87744,-0.810128 -3.24051,-2.173201 -1.36307,-1.363073 -2.1732,-3.240513 z"
               style="font-style:normal;font-variant:normal;font-weight:normal;font-stretch:normal;font-size:26.3356px;font-family:Monoton;-inkscape-font-specification:Monoton;fill:#241c1c;fill-opacity:1;stroke-width:0.274329"
               id="path1105" />
            <path
               d="m 258.99939,17.622183 -0.92586,-1.684552 V 6.5761479 h 0.92586 z m 1.85172,3.201936 -0.92586,-1.56882 V 6.5761479 h 0.92586 z m -12.75631,-6.776788 0.92587,1.684553 v 9.361483 h -0.92587 z m -1.85172,-3.330527 0.92586,1.697411 v 12.679152 h -0.92586 z m 0.32148,-4.1406561 h 1.08017 l 10.72456,18.5172191 h -1.08017 z m 2.18606,0 h 1.09303 l 10.7117,18.5172191 h -1.10589 z m 2.1732,0 h 1.08018 l 9.77297,16.9098211 V 6.5761479 h 0.92586 V 25.093367 h -1.09303 z m -5.6066,1.5945383 V 25.093367 h -0.92586 V 6.5761479 h 1.10589 l 10.68598,18.5172191 h -1.06731 z"
               style="font-style:normal;font-variant:normal;font-weight:normal;font-stretch:normal;font-size:26.3356px;font-family:Monoton;-inkscape-font-specification:Monoton;fill:#241c1c;fill-opacity:1;stroke-width:0.274329"
               id="path1107" />
            <path
               d="m 271.60138,25.093367 h -0.92586 V 6.5761479 h 8.83425 v 0.925861 h -7.90839 v 0.9258609 h 7.90839 v 0.9258609 h -7.90839 v 0.9258613 h 7.90839 v 0.925861 h -7.90839 v 2.829019 h 7.29115 v 0.925861 h -7.29115 v 0.925861 h 7.29115 v 0.925861 h -7.29115 v 0.925861 h 7.29115 v 0.925861 h -7.29115 z m -1.85173,0 h -0.92586 V 6.5761479 h 0.92586 z m -1.85172,0 h -0.92586 V 6.5761479 h 0.92586 z m -1.85172,0 h -0.92586 V 6.5761479 h 0.92586 z"
               style="font-style:normal;font-variant:normal;font-weight:normal;font-stretch:normal;font-size:26.3356px;font-family:Monoton;-inkscape-font-specification:Monoton;fill:#241c1c;fill-opacity:1;stroke-width:0.274329"
               id="path1109" />
          </g>
          <g
             aria-label="India 2021"
             transform="scale(0.95132969,1.0511603)"
             id="text8342"
             style="font-style:normal;font-variant:normal;font-weight:normal;font-stretch:normal;font-size:10.9731px;line-height:1.25;font-family:Monoton;-inkscape-font-specification:Monoton;letter-spacing:0px;word-spacing:0px;fill:#241c1c;fill-opacity:1;stroke:none;stroke-width:0.274329">
            <path
               d="m 82.29075,32.448118 h 0.925861 V 53.74292 H 82.29075 Z m -1.851722,0 h 0.925861 V 53.74292 h -0.925861 z m -1.851722,0 h 0.925861 V 53.74292 h -0.925861 z m -1.851722,0 h 0.925861 V 53.74292 h -0.925861 z"
               style="font-style:normal;font-variant:normal;font-weight:normal;font-stretch:normal;font-size:26.3356px;font-family:Monoton;-inkscape-font-specification:Monoton;fill:#241c1c;fill-opacity:1;stroke-width:0.274329"
               id="path1112" />
            <path
               d="m 100.26788,46.271737 -0.925858,-1.684553 v -9.361483 h 0.925858 z m 1.85172,3.201935 -0.92586,-1.56882 V 35.225701 h 0.92586 z m -12.756301,-6.776787 0.92586,1.684552 v 9.361483 h -0.92586 z m -1.851722,-3.330528 0.925861,1.697412 V 53.74292 h -0.925861 z m 0.321479,-4.140656 h 1.080171 L 99.637783,53.74292 h -1.080171 z m 2.186061,0 h 1.09303 L 101.82384,53.74292 h -1.10589 z m 2.173201,0 h 1.080171 l 9.772981,16.909821 V 35.225701 h 0.92586 V 53.74292 H 102.8783 Z M 86.585716,36.82024 V 53.74292 H 85.659855 V 35.225701 h 1.105889 L 97.451723,53.74292 h -1.067312 z"
               style="font-style:normal;font-variant:normal;font-weight:normal;font-stretch:normal;font-size:26.3356px;font-family:Monoton;-inkscape-font-specification:Monoton;fill:#241c1c;fill-opacity:1;stroke-width:0.274329"
               id="path1114" />
            <path
               d="m 111.94402,48.187754 v -7.406887 q 0,0 5.13081,0 1.42737,0 2.44325,1.080171 1.02873,1.080171 1.02873,2.597554 0,1.56882 -1.01588,2.648991 -1.01587,1.080171 -2.4561,1.080171 z m 0.92586,-0.925861 h 4.20495 q 1.04159,0 1.77457,-0.810128 0.74583,-0.810128 0.74583,-1.993173 0,-1.131608 -0.74583,-1.941736 -0.73298,-0.810128 -1.77457,-0.810128 h -4.20495 z m -1.85172,1.851722 h 6.05667 q 1.826,0 3.12478,-1.350214 1.29878,-1.363073 1.29878,-3.304809 0,-1.903158 -1.31164,-3.253372 -1.29877,-1.350214 -3.11192,-1.350214 h -6.05667 z m -0.92586,0.925861 V 38.929145 h 6.98253 q 2.19892,0 3.7806,1.633116 1.59454,1.620256 1.59454,3.896331 0,2.327512 -1.58168,3.960628 -1.58168,1.620256 -3.79346,1.620256 z m -0.92586,0.925861 h 7.90839 q 1.69741,0 3.1505,-0.861565 1.45309,-0.861565 2.31465,-2.366089 0.86157,-1.504524 0.86157,-3.279091 0,-1.735989 -0.86157,-3.227654 -0.86156,-1.491665 -2.32751,-2.35323 -1.45309,-0.874424 -3.13764,-0.874424 h -7.90839 z m -0.92587,0.925861 V 37.077423 h 8.83426 q 1.94174,0 3.61343,0.990157 1.68455,0.990157 2.67471,2.700428 0.99016,1.697411 0.99016,3.690584 0,2.018891 -0.99016,3.742021 -0.99016,1.710271 -2.67471,2.700428 -1.67169,0.990157 -3.61343,0.990157 z m -0.92586,0.925861 h 9.76012 q 2.19892,0 4.08922,-1.105889 1.8903,-1.118749 3.00905,-3.047626 1.13161,-1.928877 1.13161,-4.204952 0,-2.237497 -1.13161,-4.153515 -1.11875,-1.928877 -3.02191,-3.034766 -1.8903,-1.118749 -4.07636,-1.118749 h -9.76012 z m 9.76012,0.925861 H 106.38885 V 35.225701 h 10.68598 q 2.44325,0 4.55215,1.247341 2.12177,1.234481 3.36911,3.369105 1.2602,2.121764 1.2602,4.616445 0,1.8903 -0.74584,3.61343 -0.73297,1.72313 -1.98031,2.97047 -1.23448,1.234481 -2.93189,1.967455 -1.69742,0.732973 -3.52342,0.732973 z"
               style="font-style:normal;font-variant:normal;font-weight:normal;font-stretch:normal;font-size:26.3356px;font-family:Monoton;-inkscape-font-specification:Monoton;fill:#241c1c;fill-opacity:1;stroke-width:0.274329"
               id="path1116" />
            <path
               d="m 133.88178,35.225701 h 0.92586 V 53.74292 h -0.92586 z m -1.85172,0 h 0.92586 V 53.74292 h -0.92586 z m -1.85172,0 h 0.92586 V 53.74292 h -0.92586 z m -1.85173,0 h 0.92587 V 53.74292 h -0.92587 z"
               style="font-style:normal;font-variant:normal;font-weight:normal;font-stretch:normal;font-size:26.3356px;font-family:Monoton;-inkscape-font-specification:Monoton;fill:#241c1c;fill-opacity:1;stroke-width:0.274329"
               id="path1118" />
            <path
               d="m 150.36725,44.612902 q 0,-1.645975 -1.01588,-2.546117 -1.01587,-0.900143 -2.68757,-0.900143 -1.41451,0 -2.43038,0.977298 -1.01588,0.977298 -1.01588,2.340371 0,0.77155 0.20575,1.388791 0.20575,0.604381 0.55295,1.015875 0.36005,0.398635 0.8487,0.668678 0.48865,0.257183 1.01588,0.372916 0.54008,0.115732 1.14446,0.115732 1.46595,0 2.67471,-0.720114 v 0.925861 q -1.24734,0.655818 -2.68757,0.655818 -0.92586,0 -1.74884,-0.244324 -0.81013,-0.257184 -1.47881,-0.758692 -0.66868,-0.514367 -1.06731,-1.388791 -0.38578,-0.887283 -0.38578,-2.03175 0,-1.774567 1.24734,-3.009048 1.24734,-1.234482 3.12478,-1.234482 2.07033,0 3.34339,1.170186 1.28592,1.157326 1.28592,3.201935 v 9.130018 h -0.92586 z m 2.77758,0 v 9.130018 h -0.92586 v -9.130018 q 0,-2.430385 -1.55596,-3.857754 -1.55596,-1.440228 -3.99921,-1.440228 -2.26321,0 -3.78059,1.504524 -1.51739,1.504524 -1.51739,3.664867 0,1.311636 0.45007,2.353229 0.46293,1.041594 1.24734,1.671694 0.78441,0.6301 1.74885,0.964438 0.9773,0.32148 2.05747,0.32148 1.46595,0 2.79044,-0.681537 v 0.977298 q -1.38879,0.578663 -2.8033,0.578663 -1.27306,0 -2.41752,-0.385775 -1.14447,-0.398635 -2.04461,-1.144467 -0.90015,-0.758692 -1.42737,-1.954596 -0.52723,-1.208763 -0.52723,-2.700427 0,-2.533259 1.78743,-4.307826 1.80028,-1.787426 4.43641,-1.787426 1.85173,0 3.31767,0.758692 1.46595,0.745832 2.31465,2.173201 0.84871,1.427369 0.84871,3.29195 z m 1.85172,0 v 9.130018 h -0.92586 v -9.130018 q 0,-2.121764 -0.9773,-3.75488 -0.96443,-1.645975 -2.64899,-2.520399 -1.68455,-0.874425 -3.7806,-0.874425 -1.99317,0 -3.63914,0.95158 -1.64598,0.93872 -2.5847,2.546117 -0.92586,1.607398 -0.92586,3.523416 0,1.645975 0.60438,3.009048 0.60438,1.350213 1.62026,2.224638 1.02873,0.874424 2.32751,1.363073 1.31164,0.475789 2.73901,0.475789 1.45308,0 2.85473,-0.604381 v 0.93872 q -1.46594,0.552945 -2.88045,0.552945 -2.22464,0 -4.08922,-1.003016 -1.86458,-1.003016 -2.98333,-2.841879 -1.11875,-1.838863 -1.11875,-4.114937 0,-1.620257 0.61724,-3.086204 0.6301,-1.465946 1.69741,-2.533258 1.06731,-1.067312 2.57184,-1.697412 1.50452,-0.630099 3.18907,-0.630099 2.35323,0 4.24353,1.003016 1.90316,1.003016 2.99619,2.854737 1.09303,1.851722 1.09303,4.217811 z m 1.85172,0 v 9.130018 h -0.92586 v -9.130018 q 0,-2.623272 -1.22162,-4.680741 -1.22162,-2.070328 -3.33053,-3.189077 -2.1089,-1.131607 -4.70646,-1.131607 -2.49468,0 -4.565,1.195903 -2.07033,1.195904 -3.25338,3.240514 -1.18304,2.03175 -1.18304,4.436417 0,1.581679 0.50151,3.009048 0.51436,1.414509 1.38879,2.481821 0.88728,1.054453 2.03175,1.826004 1.15732,0.771551 2.48182,1.170185 1.33735,0.398635 2.71329,0.398635 1.51738,0 2.88045,-0.578663 v 0.951579 q -1.42737,0.501508 -2.93189,0.501508 -1.55596,0 -3.03477,-0.437212 -1.46594,-0.437212 -2.72614,-1.285918 -1.24734,-0.861565 -2.19892,-2.018891 -0.95158,-1.170186 -1.49167,-2.726146 -0.54008,-1.555961 -0.54008,-3.29195 0,-1.993173 0.74583,-3.793458 0.75869,-1.813145 2.05747,-3.124781 1.31163,-1.324496 3.16336,-2.096046 1.86458,-0.78441 3.96062,-0.78441 2.13463,0 4.01207,0.720114 1.87744,0.720114 3.24051,2.006032 1.36307,1.273059 2.14748,3.13764 0.78441,1.864581 0.78441,4.0635 z"
               style="font-style:normal;font-variant:normal;font-weight:normal;font-stretch:normal;font-size:26.3356px;font-family:Monoton;-inkscape-font-specification:Monoton;fill:#241c1c;fill-opacity:1;stroke-width:0.274329"
               id="path1120" />
            <path
               d="m 161.7862,50.039476 v -0.925861 h 12.55056 v 0.925861 z m 0,1.851722 v -0.925861 h 12.55056 v 0.925861 z m 0,1.851722 v -0.925861 h 12.55056 v 0.925861 z m 1.42737,-5.143672 h -1.08017 q 0.90014,-1.221622 1.77456,-2.391807 0.87443,-1.170186 1.45309,-1.941736 0.59152,-0.78441 1.14447,-1.530243 0.55294,-0.745832 0.88728,-1.195904 0.3472,-0.450071 0.65582,-0.874424 0.30862,-0.424353 0.46293,-0.655818 0.15431,-0.244324 0.27004,-0.46293 0.1286,-0.218606 0.16717,-0.347198 0.0386,-0.141451 0.0386,-0.270043 0,-0.591522 -0.48865,-0.758692 -0.48865,-0.167169 -1.72313,-0.167169 -2.00603,0 -4.01206,0.527226 l -0.19289,-0.887283 q 0.32148,-0.141451 1.62026,-0.360057 1.31163,-0.231465 2.5204,-0.231465 0.73297,0 1.27305,0.09001 0.54009,0.07715 0.9773,0.282902 0.45007,0.192888 0.68154,0.578663 0.23146,0.372916 0.23146,0.925861 0,0.552945 -0.5658,1.41451 -0.5658,0.861565 -2.90617,3.986345 -1.90316,2.533259 -3.18908,4.269248 z m 2.09605,0 h -1.08018 q 4.79648,-6.455308 5.3237,-7.214 1.08018,-1.543101 1.20877,-2.198919 0.0386,-0.180029 0.0386,-0.385776 0,-2.66185 -4.03779,-2.66185 -1.23448,0 -2.50754,0.218606 -1.27306,0.218606 -1.86458,0.437212 l -0.18003,-0.887283 q 2.19892,-0.681537 4.56501,-0.681537 0.82299,0 1.51739,0.115733 0.70725,0.102873 1.35021,0.360057 0.64296,0.257183 1.09303,0.668677 0.45007,0.398635 0.70725,1.015875 0.27005,0.617241 0.27005,1.41451 0,0.822988 -0.81013,2.070328 -0.81013,1.247341 -4.84791,6.712492 -0.48865,0.655818 -0.74583,1.015875 z m 2.14748,0 h -1.08017 q 4.38498,-5.992378 5.3237,-7.458324 0.93872,-1.478806 0.93872,-2.468963 0,-1.208763 -0.47579,-2.083187 -0.46293,-0.874424 -1.31164,-1.363073 -0.83584,-0.488649 -1.85172,-0.707255 -1.00302,-0.218606 -2.2375,-0.218606 -2.37895,0 -4.74503,0.720114 l -0.19289,-0.93872 q 2.53326,-0.745832 4.89935,-0.745832 1.15732,0 2.14748,0.167169 0.99016,0.16717 1.86458,0.565804 0.88728,0.385775 1.49166,0.990157 0.61724,0.604381 0.9773,1.530242 0.36006,0.913002 0.36006,2.083187 0,0.835847 -0.39864,1.710271 -0.38577,0.861565 -1.62025,2.636132 -1.22162,1.774567 -4.08922,5.580884 z m 2.22464,0 h -1.08017 q 2.71328,-3.587711 3.92205,-5.387996 1.22162,-1.813145 1.59453,-2.739005 0.37292,-0.938721 0.37292,-1.928877 0,-1.2602 -0.38578,-2.276075 -0.37291,-1.028735 -1.06731,-1.72313 -0.68153,-0.707255 -1.64597,-1.183045 -0.96444,-0.475789 -2.12177,-0.694396 -1.14446,-0.218606 -2.48182,-0.218606 -2.46896,0 -5.14367,0.771551 l -0.19289,-0.913002 q 2.71329,-0.784409 5.31084,-0.784409 1.92888,0 3.48484,0.424352 1.56882,0.411494 2.72615,1.247341 1.17018,0.835847 1.80028,2.19892 0.64296,1.363073 0.64296,3.150499 0,1.131607 -0.37292,2.134623 -0.36005,1.003016 -1.59453,2.841879 -1.22163,1.838863 -3.76774,5.079376 z"
               style="font-style:normal;font-variant:normal;font-weight:normal;font-stretch:normal;font-size:26.3356px;font-family:Monoton;-inkscape-font-specification:Monoton;fill:#241c1c;fill-opacity:1;stroke-width:0.274329"
               id="path1122" />
            <path
               d="m 178.3231,49.139334 q -1.33735,-2.648991 -1.33735,-6.043815 0,-3.394823 1.33735,-6.043814 1.33736,-2.648991 3.67773,-4.089219 2.34037,-1.440228 5.27226,-1.440228 2.9319,0 5.27227,1.440228 2.34037,1.440228 3.67772,4.089219 1.33736,2.648991 1.33736,6.043814 0,3.394824 -1.33736,6.043815 -1.33735,2.648991 -3.67772,4.089219 -2.34037,1.440228 -5.27227,1.440228 -2.93189,0 -5.27226,-1.440228 -2.34037,-1.440228 -3.67773,-4.089219 z m 12.39625,-10.467373 q 1.28592,1.581679 1.28592,4.423558 0,2.841879 -1.28592,4.436417 -1.27306,1.581679 -3.44626,1.581679 -2.1732,0 -3.45912,-1.581679 -1.27306,-1.594538 -1.27306,-4.436417 0,-2.841879 1.27306,-4.423558 1.28592,-1.594538 3.45912,-1.594538 2.1732,0 3.44626,1.594538 z m 1.31164,-1.311636 q 1.826,2.134624 1.826,5.735194 0,3.60057 -1.826,5.735194 -1.81315,2.134624 -4.7579,2.134624 -2.94475,0 -4.77075,-2.134624 -1.81315,-2.134624 -1.81315,-5.735194 0,-3.60057 1.81315,-5.735194 1.826,-2.134624 4.77075,-2.134624 2.94475,0 4.7579,2.134624 z m 2.58469,0.6301 q 1.09303,2.211779 1.09303,5.105094 0,2.893316 -1.09303,5.117954 -1.08017,2.211779 -2.99618,3.407682 -1.91602,1.195904 -4.34641,1.195904 -2.43038,0 -4.3464,-1.195904 -1.91602,-1.195903 -3.00905,-3.407682 -1.08017,-2.224638 -1.08017,-5.117954 0,-2.893315 1.08017,-5.105094 1.09303,-2.224638 3.00905,-3.420542 1.91602,-1.195904 4.3464,-1.195904 2.43039,0 4.34641,1.195904 1.91601,1.195904 2.99618,3.420542 z m -10.14589,1.324495 q -1.00301,1.311637 -1.00301,3.780599 0,2.468963 1.00301,3.780599 1.01588,1.311636 2.8033,1.311636 1.78743,0 2.79044,-1.311636 1.01588,-1.311636 1.01588,-3.780599 0,-2.468962 -1.01588,-3.780599 -1.00301,-1.311636 -2.79044,-1.311636 -1.78742,0 -2.8033,1.311636 z m -1.31163,-1.298777 q -1.54311,1.851722 -1.54311,5.079376 0,3.227654 1.54311,5.092235 1.55596,1.851722 4.11493,1.851722 2.55898,0 4.10208,-1.851722 1.55596,-1.864581 1.55596,-5.092235 0,-3.227654 -1.55596,-5.079376 -1.5431,-1.864581 -4.10208,-1.864581 -2.55897,0 -4.11493,1.864581 z m -1.31164,-1.311636 q -2.08319,2.404666 -2.08319,6.391012 0,3.986346 2.08319,6.391012 2.09605,2.404667 5.42657,2.404667 3.33053,0 5.41372,-2.404667 2.09604,-2.404666 2.09604,-6.391012 0,-3.986346 -2.09604,-6.391012 -2.08319,-2.404667 -5.41372,-2.404667 -3.33052,0 -5.42657,2.404667 z m -3.22766,2.044609 q -0.70725,1.993173 -0.70725,4.346403 0,2.35323 0.70725,4.359262 0.70726,1.993173 1.94174,3.369105 1.24734,1.375932 2.97047,2.147483 1.73599,0.771551 3.74202,0.771551 2.00603,0 3.72916,-0.771551 1.73599,-0.771551 2.97048,-2.147483 1.24734,-1.375932 1.95459,-3.369105 0.70726,-2.006032 0.70726,-4.359262 0,-2.35323 -0.70726,-4.346403 -0.70725,-2.006032 -1.95459,-3.381964 -1.23449,-1.375932 -2.97048,-2.147483 -1.72313,-0.771551 -3.72916,-0.771551 -2.00603,0 -3.74202,0.771551 -1.72313,0.771551 -2.97047,2.147483 -1.23448,1.375932 -1.94174,3.381964 z"
               style="font-style:normal;font-variant:normal;font-weight:normal;font-stretch:normal;font-size:26.3356px;font-family:Monoton;-inkscape-font-specification:Monoton;fill:#241c1c;fill-opacity:1;stroke-width:0.274329"
               id="path1124" />
            <path
               d="m 199.34786,50.039476 v -0.925861 h 12.55056 v 0.925861 z m 0,1.851722 v -0.925861 h 12.55056 v 0.925861 z m 0,1.851722 v -0.925861 h 12.55056 v 0.925861 z m 1.42737,-5.143672 h -1.08017 q 0.90014,-1.221622 1.77457,-2.391807 0.87442,-1.170186 1.45308,-1.941736 0.59153,-0.78441 1.14447,-1.530243 0.55294,-0.745832 0.88728,-1.195904 0.3472,-0.450071 0.65582,-0.874424 0.30862,-0.424353 0.46293,-0.655818 0.15431,-0.244324 0.27004,-0.46293 0.1286,-0.218606 0.16717,-0.347198 0.0386,-0.141451 0.0386,-0.270043 0,-0.591522 -0.48865,-0.758692 -0.48865,-0.167169 -1.72313,-0.167169 -2.00603,0 -4.01206,0.527226 l -0.19289,-0.887283 q 0.32148,-0.141451 1.62026,-0.360057 1.31163,-0.231465 2.5204,-0.231465 0.73297,0 1.27306,0.09001 0.54008,0.07715 0.97729,0.282902 0.45007,0.192888 0.68154,0.578663 0.23146,0.372916 0.23146,0.925861 0,0.552945 -0.5658,1.41451 -0.5658,0.861565 -2.90617,3.986345 -1.90316,2.533259 -3.18908,4.269248 z m 2.09605,0 h -1.08017 q 4.79647,-6.455308 5.3237,-7.214 1.08017,-1.543101 1.20876,-2.198919 0.0386,-0.180029 0.0386,-0.385776 0,-2.66185 -4.03779,-2.66185 -1.23448,0 -2.50754,0.218606 -1.27306,0.218606 -1.86458,0.437212 l -0.18003,-0.887283 q 2.19892,-0.681537 4.56501,-0.681537 0.82299,0 1.51739,0.115733 0.70725,0.102873 1.35021,0.360057 0.64296,0.257183 1.09303,0.668677 0.45007,0.398635 0.70725,1.015875 0.27005,0.617241 0.27005,1.41451 0,0.822988 -0.81013,2.070328 -0.81013,1.247341 -4.84791,6.712492 -0.48865,0.655818 -0.74583,1.015875 z m 2.14748,0 h -1.08017 q 4.38498,-5.992378 5.3237,-7.458324 0.93872,-1.478806 0.93872,-2.468963 0,-1.208763 -0.47579,-2.083187 -0.46293,-0.874424 -1.31164,-1.363073 -0.83584,-0.488649 -1.85172,-0.707255 -1.00302,-0.218606 -2.2375,-0.218606 -2.37894,0 -4.74503,0.720114 l -0.19289,-0.93872 q 2.53326,-0.745832 4.89935,-0.745832 1.15732,0 2.14748,0.167169 0.99016,0.16717 1.86458,0.565804 0.88728,0.385775 1.49166,0.990157 0.61725,0.604381 0.9773,1.530242 0.36006,0.913002 0.36006,2.083187 0,0.835847 -0.39864,1.710271 -0.38577,0.861565 -1.62025,2.636132 -1.22162,1.774567 -4.08922,5.580884 z m 2.22464,0 h -1.08017 q 2.71328,-3.587711 3.92205,-5.387996 1.22162,-1.813145 1.59453,-2.739005 0.37292,-0.938721 0.37292,-1.928877 0,-1.2602 -0.38577,-2.276075 -0.37292,-1.028735 -1.06732,-1.72313 -0.68153,-0.707255 -1.64597,-1.183045 -0.96444,-0.475789 -2.12177,-0.694396 -1.14446,-0.218606 -2.48182,-0.218606 -2.46896,0 -5.14367,0.771551 l -0.19289,-0.913002 q 2.71329,-0.784409 5.31084,-0.784409 1.92888,0 3.48484,0.424352 1.56882,0.411494 2.72615,1.247341 1.17018,0.835847 1.80028,2.19892 0.64296,1.363073 0.64296,3.150499 0,1.131607 -0.37291,2.134623 -0.36006,1.003016 -1.59454,2.841879 -1.22163,1.838863 -3.76774,5.079376 z"
               style="font-style:normal;font-variant:normal;font-weight:normal;font-stretch:normal;font-size:26.3356px;font-family:Monoton;-inkscape-font-specification:Monoton;fill:#241c1c;fill-opacity:1;stroke-width:0.274329"
               id="path1126" />
            <path
               d="m 214.44454,37.077423 v -0.925861 h 9.33577 V 53.74292 h -0.92586 V 37.077423 h -0.92586 V 53.74292 h -0.92586 V 37.077423 h -0.92587 V 53.74292 H 219.151 V 37.077423 h -0.92586 V 53.74292 h -0.92586 V 37.077423 Z m 0,-1.851722 V 34.29984 h 9.33577 v 0.925861 z m 0,-1.851722 v -0.925861 h 9.33577 v 0.925861 z"
               style="font-style:normal;font-variant:normal;font-weight:normal;font-stretch:normal;font-size:26.3356px;font-family:Monoton;-inkscape-font-specification:Monoton;fill:#241c1c;fill-opacity:1;stroke-width:0.274329"
               id="path1128" />
          </g>
        </g>
        <g
           id="g8536"
           transform="matrix(1.3611495,0,0,1.3611495,28.549872,28.549584)"
           style="fill:#d6d6d6;fill-opacity:1;filter:url(#filter3270)"
           inkscape:export-xdpi="1146.4374"
           inkscape:export-ydpi="1146.4374">
          <path
             fill="#000088"
             fill-rule="evenodd"
             d="m 0,-20 a 20,20 0 0 0 0,40 20,20 0 0 0 0,-40 z m 0,2.5 a 17.5,17.5 0 0 0 0,35 17.5,17.5 0 0 0 0,-35 z"
             id="path8346"
             style="fill:#d6d6d6;fill-opacity:1" />
          <circle
             r="3.5"
             fill="#000088"
             id="circle8348"
             cx="0"
             cy="0"
             style="fill:#d6d6d6;fill-opacity:1" />
          <g
             id="g8410"
             style="fill:#d6d6d6;fill-opacity:1">
            <g
               id="g8378"
               style="fill:#d6d6d6;fill-opacity:1">
              <g
                 id="g8362"
                 style="fill:#d6d6d6;fill-opacity:1">
                <g
                   id="g8354"
                   style="fill:#d6d6d6;fill-opacity:1">
                  <circle
                     r="0.875"
                     fill="#000088"
                     transform="rotate(7.5,-8.75,133.4992)"
                     id="circle8350"
                     cx="0"
                     cy="0"
                     style="fill:#d6d6d6;fill-opacity:1" />
                  <path
                     fill="#000088"
                     d="M 0,17.5 0.6,7 C 0.6,7 0,2 0,2 0,2 -0.6,7 -0.6,7 Z"
                     id="path8352"
                     style="fill:#d6d6d6;fill-opacity:1" />
                </g>
                <g
                   id="g8360"
                   style="fill:#d6d6d6;fill-opacity:1"
                   transform="rotate(15)">
                  <circle
                     r="0.875"
                     fill="#000088"
                     transform="rotate(7.5,-8.75,133.4992)"
                     id="circle8356"
                     cx="0"
                     cy="0"
                     style="fill:#d6d6d6;fill-opacity:1" />
                  <path
                     fill="#000088"
                     d="M 0,17.5 0.6,7 C 0.6,7 0,2 0,2 0,2 -0.6,7 -0.6,7 Z"
                     id="path8358"
                     style="fill:#d6d6d6;fill-opacity:1" />
                </g>
              </g>
              <g
                 id="g8376"
                 style="fill:#d6d6d6;fill-opacity:1"
                 transform="rotate(30)">
                <g
                   id="g8368"
                   style="fill:#d6d6d6;fill-opacity:1">
                  <circle
                     r="0.875"
                     fill="#000088"
                     transform="rotate(7.5,-8.75,133.4992)"
                     id="circle8364"
                     cx="0"
                     cy="0"
                     style="fill:#d6d6d6;fill-opacity:1" />
                  <path
                     fill="#000088"
                     d="M 0,17.5 0.6,7 C 0.6,7 0,2 0,2 0,2 -0.6,7 -0.6,7 Z"
                     id="path8366"
                     style="fill:#d6d6d6;fill-opacity:1" />
                </g>
                <g
                   id="g8374"
                   style="fill:#d6d6d6;fill-opacity:1"
                   transform="rotate(15)">
                  <circle
                     r="0.875"
                     fill="#000088"
                     transform="rotate(7.5,-8.75,133.4992)"
                     id="circle8370"
                     cx="0"
                     cy="0"
                     style="fill:#d6d6d6;fill-opacity:1" />
                  <path
                     fill="#000088"
                     d="M 0,17.5 0.6,7 C 0.6,7 0,2 0,2 0,2 -0.6,7 -0.6,7 Z"
                     id="path8372"
                     style="fill:#d6d6d6;fill-opacity:1" />
                </g>
              </g>
            </g>
            <g
               id="g8408"
               style="fill:#d6d6d6;fill-opacity:1"
               transform="rotate(60)">
              <g
                 id="g8392"
                 style="fill:#d6d6d6;fill-opacity:1">
                <g
                   id="g8384"
                   style="fill:#d6d6d6;fill-opacity:1">
                  <circle
                     r="0.875"
                     fill="#000088"
                     transform="rotate(7.5,-8.75,133.4992)"
                     id="circle8380"
                     cx="0"
                     cy="0"
                     style="fill:#d6d6d6;fill-opacity:1" />
                  <path
                     fill="#000088"
                     d="M 0,17.5 0.6,7 C 0.6,7 0,2 0,2 0,2 -0.6,7 -0.6,7 Z"
                     id="path8382"
                     style="fill:#d6d6d6;fill-opacity:1" />
                </g>
                <g
                   id="g8390"
                   style="fill:#d6d6d6;fill-opacity:1"
                   transform="rotate(15)">
                  <circle
                     r="0.875"
                     fill="#000088"
                     transform="rotate(7.5,-8.75,133.4992)"
                     id="circle8386"
                     cx="0"
                     cy="0"
                     style="fill:#d6d6d6;fill-opacity:1" />
                  <path
                     fill="#000088"
                     d="M 0,17.5 0.6,7 C 0.6,7 0,2 0,2 0,2 -0.6,7 -0.6,7 Z"
                     id="path8388"
                     style="fill:#d6d6d6;fill-opacity:1" />
                </g>
              </g>
              <g
                 id="g8406"
                 style="fill:#d6d6d6;fill-opacity:1"
                 transform="rotate(30)">
                <g
                   id="g8398"
                   style="fill:#d6d6d6;fill-opacity:1">
                  <circle
                     r="0.875"
                     fill="#000088"
                     transform="rotate(7.5,-8.75,133.4992)"
                     id="circle8394"
                     cx="0"
                     cy="0"
                     style="fill:#d6d6d6;fill-opacity:1" />
                  <path
                     fill="#000088"
                     d="M 0,17.5 0.6,7 C 0.6,7 0,2 0,2 0,2 -0.6,7 -0.6,7 Z"
                     id="path8396"
                     style="fill:#d6d6d6;fill-opacity:1" />
                </g>
                <g
                   id="g8404"
                   style="fill:#d6d6d6;fill-opacity:1"
                   transform="rotate(15)">
                  <circle
                     r="0.875"
                     fill="#000088"
                     transform="rotate(7.5,-8.75,133.4992)"
                     id="circle8400"
                     cx="0"
                     cy="0"
                     style="fill:#d6d6d6;fill-opacity:1" />
                  <path
                     fill="#000088"
                     d="M 0,17.5 0.6,7 C 0.6,7 0,2 0,2 0,2 -0.6,7 -0.6,7 Z"
                     id="path8402"
                     style="fill:#d6d6d6;fill-opacity:1" />
                </g>
              </g>
            </g>
          </g>
          <g
             id="g8472"
             style="fill:#d6d6d6;fill-opacity:1"
             transform="rotate(120)">
            <g
               id="g8440"
               style="fill:#d6d6d6;fill-opacity:1">
              <g
                 id="g8424"
                 style="fill:#d6d6d6;fill-opacity:1">
                <g
                   id="g8416"
                   style="fill:#d6d6d6;fill-opacity:1">
                  <circle
                     r="0.875"
                     fill="#000088"
                     transform="rotate(7.5,-8.75,133.4992)"
                     id="circle8412"
                     cx="0"
                     cy="0"
                     style="fill:#d6d6d6;fill-opacity:1" />
                  <path
                     fill="#000088"
                     d="M 0,17.5 0.6,7 C 0.6,7 0,2 0,2 0,2 -0.6,7 -0.6,7 Z"
                     id="path8414"
                     style="fill:#d6d6d6;fill-opacity:1" />
                </g>
                <g
                   id="g8422"
                   style="fill:#d6d6d6;fill-opacity:1"
                   transform="rotate(15)">
                  <circle
                     r="0.875"
                     fill="#000088"
                     transform="rotate(7.5,-8.75,133.4992)"
                     id="circle8418"
                     cx="0"
                     cy="0"
                     style="fill:#d6d6d6;fill-opacity:1" />
                  <path
                     fill="#000088"
                     d="M 0,17.5 0.6,7 C 0.6,7 0,2 0,2 0,2 -0.6,7 -0.6,7 Z"
                     id="path8420"
                     style="fill:#d6d6d6;fill-opacity:1" />
                </g>
              </g>
              <g
                 id="g8438"
                 style="fill:#d6d6d6;fill-opacity:1"
                 transform="rotate(30)">
                <g
                   id="g8430"
                   style="fill:#d6d6d6;fill-opacity:1">
                  <circle
                     r="0.875"
                     fill="#000088"
                     transform="rotate(7.5,-8.75,133.4992)"
                     id="circle8426"
                     cx="0"
                     cy="0"
                     style="fill:#d6d6d6;fill-opacity:1" />
                  <path
                     fill="#000088"
                     d="M 0,17.5 0.6,7 C 0.6,7 0,2 0,2 0,2 -0.6,7 -0.6,7 Z"
                     id="path8428"
                     style="fill:#d6d6d6;fill-opacity:1" />
                </g>
                <g
                   id="g8436"
                   style="fill:#d6d6d6;fill-opacity:1"
                   transform="rotate(15)">
                  <circle
                     r="0.875"
                     fill="#000088"
                     transform="rotate(7.5,-8.75,133.4992)"
                     id="circle8432"
                     cx="0"
                     cy="0"
                     style="fill:#d6d6d6;fill-opacity:1" />
                  <path
                     fill="#000088"
                     d="M 0,17.5 0.6,7 C 0.6,7 0,2 0,2 0,2 -0.6,7 -0.6,7 Z"
                     id="path8434"
                     style="fill:#d6d6d6;fill-opacity:1" />
                </g>
              </g>
            </g>
            <g
               id="g8470"
               style="fill:#d6d6d6;fill-opacity:1"
               transform="rotate(60)">
              <g
                 id="g8454"
                 style="fill:#d6d6d6;fill-opacity:1">
                <g
                   id="g8446"
                   style="fill:#d6d6d6;fill-opacity:1">
                  <circle
                     r="0.875"
                     fill="#000088"
                     transform="rotate(7.5,-8.75,133.4992)"
                     id="circle8442"
                     cx="0"
                     cy="0"
                     style="fill:#d6d6d6;fill-opacity:1" />
                  <path
                     fill="#000088"
                     d="M 0,17.5 0.6,7 C 0.6,7 0,2 0,2 0,2 -0.6,7 -0.6,7 Z"
                     id="path8444"
                     style="fill:#d6d6d6;fill-opacity:1" />
                </g>
                <g
                   id="g8452"
                   style="fill:#d6d6d6;fill-opacity:1"
                   transform="rotate(15)">
                  <circle
                     r="0.875"
                     fill="#000088"
                     transform="rotate(7.5,-8.75,133.4992)"
                     id="circle8448"
                     cx="0"
                     cy="0"
                     style="fill:#d6d6d6;fill-opacity:1" />
                  <path
                     fill="#000088"
                     d="M 0,17.5 0.6,7 C 0.6,7 0,2 0,2 0,2 -0.6,7 -0.6,7 Z"
                     id="path8450"
                     style="fill:#d6d6d6;fill-opacity:1" />
                </g>
              </g>
              <g
                 id="g8468"
                 style="fill:#d6d6d6;fill-opacity:1"
                 transform="rotate(30)">
                <g
                   id="g8460"
                   style="fill:#d6d6d6;fill-opacity:1">
                  <circle
                     r="0.875"
                     fill="#000088"
                     transform="rotate(7.5,-8.75,133.4992)"
                     id="circle8456"
                     cx="0"
                     cy="0"
                     style="fill:#d6d6d6;fill-opacity:1" />
                  <path
                     fill="#000088"
                     d="M 0,17.5 0.6,7 C 0.6,7 0,2 0,2 0,2 -0.6,7 -0.6,7 Z"
                     id="path8458"
                     style="fill:#d6d6d6;fill-opacity:1" />
                </g>
                <g
                   id="g8466"
                   style="fill:#d6d6d6;fill-opacity:1"
                   transform="rotate(15)">
                  <circle
                     r="0.875"
                     fill="#000088"
                     transform="rotate(7.5,-8.75,133.4992)"
                     id="circle8462"
                     cx="0"
                     cy="0"
                     style="fill:#d6d6d6;fill-opacity:1" />
                  <path
                     fill="#000088"
                     d="M 0,17.5 0.6,7 C 0.6,7 0,2 0,2 0,2 -0.6,7 -0.6,7 Z"
                     id="path8464"
                     style="fill:#d6d6d6;fill-opacity:1" />
                </g>
              </g>
            </g>
          </g>
          <g
             id="g8534"
             style="fill:#d6d6d6;fill-opacity:1"
             transform="rotate(-120)">
            <g
               id="g8502"
               style="fill:#d6d6d6;fill-opacity:1">
              <g
                 id="g8486"
                 style="fill:#d6d6d6;fill-opacity:1">
                <g
                   id="g8478"
                   style="fill:#d6d6d6;fill-opacity:1">
                  <circle
                     r="0.875"
                     fill="#000088"
                     transform="rotate(7.5,-8.75,133.4992)"
                     id="circle8474"
                     cx="0"
                     cy="0"
                     style="fill:#d6d6d6;fill-opacity:1" />
                  <path
                     fill="#000088"
                     d="M 0,17.5 0.6,7 C 0.6,7 0,2 0,2 0,2 -0.6,7 -0.6,7 Z"
                     id="path8476"
                     style="fill:#d6d6d6;fill-opacity:1" />
                </g>
                <g
                   id="g8484"
                   style="fill:#d6d6d6;fill-opacity:1"
                   transform="rotate(15)">
                  <circle
                     r="0.875"
                     fill="#000088"
                     transform="rotate(7.5,-8.75,133.4992)"
                     id="circle8480"
                     cx="0"
                     cy="0"
                     style="fill:#d6d6d6;fill-opacity:1" />
                  <path
                     fill="#000088"
                     d="M 0,17.5 0.6,7 C 0.6,7 0,2 0,2 0,2 -0.6,7 -0.6,7 Z"
                     id="path8482"
                     style="fill:#d6d6d6;fill-opacity:1" />
                </g>
              </g>
              <g
                 id="g8500"
                 style="fill:#d6d6d6;fill-opacity:1"
                 transform="rotate(30)">
                <g
                   id="g8492"
                   style="fill:#d6d6d6;fill-opacity:1">
                  <circle
                     r="0.875"
                     fill="#000088"
                     transform="rotate(7.5,-8.75,133.4992)"
                     id="circle8488"
                     cx="0"
                     cy="0"
                     style="fill:#d6d6d6;fill-opacity:1" />
                  <path
                     fill="#000088"
                     d="M 0,17.5 0.6,7 C 0.6,7 0,2 0,2 0,2 -0.6,7 -0.6,7 Z"
                     id="path8490"
                     style="fill:#d6d6d6;fill-opacity:1" />
                </g>
                <g
                   id="g8498"
                   style="fill:#d6d6d6;fill-opacity:1"
                   transform="rotate(15)">
                  <circle
                     r="0.875"
                     fill="#000088"
                     transform="rotate(7.5,-8.75,133.4992)"
                     id="circle8494"
                     cx="0"
                     cy="0"
                     style="fill:#d6d6d6;fill-opacity:1" />
                  <path
                     fill="#000088"
                     d="M 0,17.5 0.6,7 C 0.6,7 0,2 0,2 0,2 -0.6,7 -0.6,7 Z"
                     id="path8496"
                     style="fill:#d6d6d6;fill-opacity:1" />
                </g>
              </g>
            </g>
            <g
               id="g8532"
               style="fill:#d6d6d6;fill-opacity:1"
               transform="rotate(60)">
              <g
                 id="g8516"
                 style="fill:#d6d6d6;fill-opacity:1">
                <g
                   id="g8508"
                   style="fill:#d6d6d6;fill-opacity:1">
                  <circle
                     r="0.875"
                     fill="#000088"
                     transform="rotate(7.5,-8.75,133.4992)"
                     id="circle8504"
                     cx="0"
                     cy="0"
                     style="fill:#d6d6d6;fill-opacity:1" />
                  <path
                     fill="#000088"
                     d="M 0,17.5 0.6,7 C 0.6,7 0,2 0,2 0,2 -0.6,7 -0.6,7 Z"
                     id="path8506"
                     style="fill:#d6d6d6;fill-opacity:1" />
                </g>
                <g
                   id="g8514"
                   style="fill:#d6d6d6;fill-opacity:1"
                   transform="rotate(15)">
                  <circle
                     r="0.875"
                     fill="#000088"
                     transform="rotate(7.5,-8.75,133.4992)"
                     id="circle8510"
                     cx="0"
                     cy="0"
                     style="fill:#d6d6d6;fill-opacity:1" />
                  <path
                     fill="#000088"
                     d="M 0,17.5 0.6,7 C 0.6,7 0,2 0,2 0,2 -0.6,7 -0.6,7 Z"
                     id="path8512"
                     style="fill:#d6d6d6;fill-opacity:1" />
                </g>
              </g>
              <g
                 id="g8530"
                 style="fill:#d6d6d6;fill-opacity:1"
                 transform="rotate(30)">
                <g
                   id="g8522"
                   style="fill:#d6d6d6;fill-opacity:1">
                  <circle
                     r="0.875"
                     fill="#000088"
                     transform="rotate(7.5,-8.75,133.4992)"
                     id="circle8518"
                     cx="0"
                     cy="0"
                     style="fill:#d6d6d6;fill-opacity:1" />
                  <path
                     fill="#000088"
                     d="M 0,17.5 0.6,7 C 0.6,7 0,2 0,2 0,2 -0.6,7 -0.6,7 Z"
                     id="path8520"
                     style="fill:#d6d6d6;fill-opacity:1" />
                </g>
                <g
                   id="g8528"
                   style="fill:#d6d6d6;fill-opacity:1"
                   transform="rotate(15)">
                  <circle
                     r="0.875"
                     fill="#000088"
                     transform="rotate(7.5,-8.75,133.4992)"
                     id="circle8524"
                     cx="0"
                     cy="0"
                     style="fill:#d6d6d6;fill-opacity:1" />
                  <path
                     fill="#000088"
                     d="M 0,17.5 0.6,7 C 0.6,7 0,2 0,2 0,2 -0.6,7 -0.6,7 Z"
                     id="path8526"
                     style="fill:#d6d6d6;fill-opacity:1" />
                </g>
              </g>
            </g>
          </g>
        </g>
        <g
           id="g9294"
           transform="matrix(0.80975261,0,0,0.89472644,12.055323,-236.27776)"
           style="fill:#a80030;fill-opacity:1"
           inkscape:export-xdpi="1146.4374"
           inkscape:export-ydpi="1146.4374">
          <path
             i:knockout="Off"
             fill="#a80030"
             d="m 24.098688,297.335 c -0.787623,0.01 0.148145,0.40488 1.176693,0.56356 0.285211,-0.22246 0.541426,-0.446 0.771281,-0.66425 -0.639483,0.15662 -1.291092,0.1602 -1.947974,0.10063"
             id="path9246"
             style="fill:#a80030;fill-opacity:1;stroke-width:0.527191" />
          <path
             i:knockout="Off"
             fill="#a80030"
             d="m 28.325187,296.28114 c 0.470782,-0.64791 0.812402,-1.35646 0.933128,-2.08925 -0.105963,0.5219 -0.388012,0.97266 -0.655827,1.44925 -1.472447,0.92733 -0.139179,-0.5504 -0.0011,-1.11291 -1.58263,1.99437 -0.218257,1.19568 -0.276247,1.75291"
             id="path9248"
             style="fill:#a80030;fill-opacity:1;stroke-width:0.527191" />
          <path
             i:knockout="Off"
             fill="#a80030"
             d="m 29.887255,292.21966 c 0.09594,-1.41867 -0.278885,-0.96951 -0.404883,-0.42914 0.146551,0.0769 0.263069,1.00062 0.404883,0.42914"
             id="path9250"
             style="fill:#a80030;fill-opacity:1;stroke-width:0.527191" />
          <path
             i:knockout="Off"
             fill="#a80030"
             d="m 21.110565,272.83007 c 0.420698,0.0749 0.908878,0.1329 0.838762,0.23354 0.461821,-0.10182 0.565677,-0.19347 -0.838762,-0.23354"
             id="path9252"
             style="fill:#a80030;fill-opacity:1;stroke-width:0.527191" />
          <path
             i:knockout="Off"
             fill="#a80030"
             d="m 21.949853,273.06361 -0.295754,0.0618 0.275721,-0.0253 0.02003,-0.0365"
             id="path9254"
             style="fill:#a80030;fill-opacity:1;stroke-width:0.527191" />
          <path
             i:knockout="Off"
             fill="#a80030"
             d="m 35.060589,292.7574 c 0.04744,1.27369 -0.37167,1.89261 -0.75072,2.98705 l -0.681661,0.33899 c -0.55724,1.08287 0.05535,0.68747 -0.343728,1.54836 -0.870922,0.77341 -2.639122,2.4193 -3.205327,2.57008 -0.413846,-0.01 0.279939,-0.48819 0.370615,-0.67533 -1.164565,0.7992 -0.93471,1.19988 -2.716092,1.68648 l -0.05167,-0.11656 c -4.391508,2.06659 -10.492172,-2.02811 -10.412041,-7.61422 -0.04639,0.35427 -0.13338,0.2657 -0.230383,0.40805 -0.226692,-2.87374 1.32747,-5.7601 3.948667,-6.94048 2.563735,-1.26843 5.569257,-0.74862 7.404411,0.96422 -1.00799,-1.32115 -3.016065,-2.7219 -5.394226,-2.59221 -2.330716,0.0379 -4.51171,1.51886 -5.239233,3.12731 -1.193563,0.75125 -1.332742,2.89745 -1.852553,3.29073 -0.700639,5.14539 1.316397,7.36751 4.728911,9.98291 0.535627,0.36165 0.150775,0.41702 0.222474,0.69221 -1.133462,-0.53036 -2.170976,-1.33169 -3.025027,-2.3128 0.453386,0.66268 0.942093,1.3069 1.574196,1.81301 -1.069673,-0.36113 -2.497836,-2.5901 -2.91379,-2.68076 1.842536,3.29916 7.474526,5.78593 10.425219,4.55177 -1.365427,0.0506 -3.09936,0.0279 -4.632433,-0.5388 -0.645811,-0.3316 -1.520423,-1.01747 -1.363848,-1.14557 4.025639,1.50301 8.183074,1.13768 11.665703,-1.65381 0.886738,-0.69063 1.854662,-1.86467 2.1346,-1.88049 -0.421226,0.63369 0.07223,0.30472 -0.25147,0.86406 0.881464,-1.42394 -0.384323,-0.57991 0.912041,-2.45883 l 0.478691,0.65899 c -0.179248,-1.183 1.468229,-2.61803 1.300583,-4.48745 0.377996,-0.57148 0.421226,0.61576 0.02056,1.93057 0.556186,-1.45873 0.147089,-1.69334 0.289427,-2.89745 0.153406,0.40489 0.357435,0.83456 0.461292,1.26212 -0.362707,-1.41024 0.370616,-2.37395 0.553025,-3.19374 -0.180305,-0.0791 -0.559351,0.62315 -0.646863,-1.04174 0.01315,-0.72329 0.201914,-0.37904 0.274139,-0.55723 -0.141291,-0.0817 -0.514013,-0.63632 -0.740177,-1.69967 0.162909,-0.25041 0.438623,0.64793 0.662153,0.68429 -0.143921,-0.84509 -0.391176,-1.48984 -0.401721,-2.13881 -0.653717,-1.36542 -0.231437,0.18232 -0.760738,-0.58624 -0.695894,-2.16887 0.576747,-0.50347 0.663207,-1.48826 1.053331,1.52622 1.653802,3.89331 1.930577,4.87336 -0.210876,-1.19514 -0.550915,-2.35338 -0.96687,-3.47367 0.321061,0.1355 -0.516121,-2.45829 0.41701,-0.7407 -0.995866,-3.66135 -4.258656,-7.08283 -7.261014,-8.6876 0.366398,0.33582 0.8298,0.75758 0.664262,0.82401 -1.494062,-0.88833 -1.231521,-0.95845 -1.445561,-1.3338 -1.215177,-0.49503 -1.296364,0.0406 -2.100333,10e-4 -2.293284,-1.21677 -2.735071,-1.08761 -4.84542,-1.84886 l 0.09594,0.44916 c -1.518841,-0.50611 -1.769783,0.19088 -3.410931,0.001 -0.09965,-0.0775 0.526137,-0.28258 1.041729,-0.3569 -1.468756,0.19407 -1.400221,-0.28995 -2.837345,0.0532 0.353745,-0.24831 0.729107,-0.41331 1.106575,-0.6242 -1.197252,0.0727 -2.859489,0.69695 -2.346531,0.12872 -1.953245,0.87197 -5.422695,2.09559 -7.369614,3.92125 l -0.06115,-0.40909 c -0.8920091,1.07071 -3.8901487,3.19794 -4.1289681,4.58604 l -0.2388174,0.0554 c -0.4634022,0.78603 -0.7644286,1.67646 -1.1324082,2.48465 -0.6067971,1.03488 -0.8899006,0.39855 -0.8034405,0.56094 -1.1940891,2.42085 -1.7882356,4.45475 -2.3001381,6.12386 0.3648175,0.54563 0.00897,3.28545 0.1465511,5.47804 -0.5988887,10.83063 7.6010541,21.34548 16.5643692,23.77267 1.313763,0.47078 3.267008,0.4539 4.928718,0.50031 -1.9601,-0.56094 -2.213152,-0.29681 -4.123696,-0.96266 -1.377552,-0.6495 -1.679106,-1.39021 -2.655465,-2.2374 l 0.386433,0.68271 c -1.913708,-0.67745 -1.112904,-0.83824 -2.670228,-1.33116 l 0.412792,-0.53826 c -0.620506,-0.0474 -1.643259,-1.04491 -1.92267,-1.59897 l -0.679023,0.0269 c -0.815039,-1.00482 -1.249972,-1.73078 -1.217814,-2.29329 l -0.219311,0.39117 c -0.248308,-0.42648 -3.0002495,-3.77362 -1.5726131,-2.99444 -0.265179,-0.24146 -0.61787,-0.39381 -1.0000839,-1.08918 l 0.2904839,-0.3316 c -0.6858698,-0.884 -1.2641995,-2.01693 -1.2199154,-2.3944 0.3663976,0.49451 0.6205037,0.5873 0.8725018,0.67218 -1.734989,-4.304 -1.8325197,-0.23671 -3.1457546,-4.38097 l 0.2773033,-0.0221 c -0.2124582,-0.32214 -0.3426744,-0.66956 -0.5134846,-1.01169 l 0.1212459,-1.20463 c -1.2483898,-1.4424 -0.3490007,-6.13917 -0.1681701,-8.7145 0.1238959,-1.047 1.0422579,-2.162 1.7397333,-3.91069 l -0.4249164,-0.0727 c 0.8129289,-1.41709 4.6403419,-5.69313 6.4138169,-5.47383 0.858795,-1.07862 -0.1708,-0.004 -0.338984,-0.27519 1.886818,-1.95219 2.479911,-1.37914 3.753078,-1.73078 1.372281,-0.81451 -1.178273,0.31843 -0.527718,-0.31052 2.373944,-0.60573 1.681741,-1.37808 4.777939,-1.68542 0.32686,0.1855 -0.757574,0.2868 -1.029605,0.52772 1.976968,-0.96793 6.257241,-0.74702 9.038704,0.53669 3.224833,1.50829 6.850332,5.96464 6.993729,10.15739 l 0.16291,0.0438 c -0.08223,1.66699 0.25516,3.59493 -0.33055,5.36524 l 0.395921,-0.83876"
             id="path9256"
             style="fill:#a80030;fill-opacity:1;stroke-width:0.527191" />
          <path
             i:knockout="Off"
             fill="#a80030"
             d="m 15.499661,298.41575 -0.111244,0.55197 c 0.518231,0.7038 0.929441,1.46611 1.590013,2.01439 -0.475529,-0.92732 -0.82822,-1.31059 -1.478775,-2.56636"
             id="path9258"
             style="fill:#a80030;fill-opacity:1;stroke-width:0.527191" />
          <path
             i:knockout="Off"
             fill="#a80030"
             d="m 16.723273,298.36831 c -0.274139,-0.30367 -0.435461,-0.6685 -0.617867,-1.0312 0.173968,0.63843 0.530353,1.18723 0.860903,1.74606 l -0.243036,-0.71486"
             id="path9260"
             style="fill:#a80030;fill-opacity:1;stroke-width:0.527191" />
          <path
             i:knockout="Off"
             fill="#a80030"
             d="m 38.382426,293.66048 -0.115448,0.29101 c -0.21193,1.50672 -0.671116,2.99761 -1.373335,4.38043 0.776027,-1.45873 1.276333,-3.05456 1.488791,-4.67144"
             id="path9262"
             style="fill:#a80030;fill-opacity:1;stroke-width:0.527191" />
          <path
             i:knockout="Off"
             fill="#a80030"
             d="m 21.267141,272.45206 c 0.531937,-0.19447 1.30849,-0.107 1.874693,-0.23512 -0.737013,0.0618 -1.470338,0.0986 -2.194173,0.19089 l 0.31948,0.0442"
             id="path9264"
             style="fill:#a80030;fill-opacity:1;stroke-width:0.527191" />
          <path
             i:knockout="Off"
             fill="#a80030"
             d="m 2.5671177,282.39595 c 0.1228398,1.13559 -0.8540509,1.57684 0.2161483,0.82719 0.5746395,-1.29374 -0.2235287,-0.35693 -0.2161483,-0.82719"
             id="path9266"
             style="fill:#a80030;fill-opacity:1;stroke-width:0.527191" />
          <path
             i:knockout="Off"
             fill="#a80030"
             d="m 1.3081834,287.65418 c 0.2472518,-0.75758 0.291536,-1.21202 0.3859045,-1.65118 -0.6816606,0.87198 -0.3142071,1.05808 -0.3859045,1.65118"
             id="path9268"
             style="fill:#a80030;fill-opacity:1;stroke-width:0.527191" />
          <path
             i:knockout="Off"
             fill="#a80030"
             d="m 24.098688,297.335 c -0.787623,0.01 0.148145,0.40488 1.176693,0.56356 0.285211,-0.22246 0.541426,-0.446 0.771281,-0.66425 -0.639483,0.15662 -1.291092,0.1602 -1.947974,0.10063"
             id="path9270"
             style="fill:#a80030;fill-opacity:1;stroke-width:0.527191" />
          <path
             i:knockout="Off"
             fill="#a80030"
             d="m 28.325187,296.28114 c 0.470782,-0.64791 0.812402,-1.35646 0.933128,-2.08925 -0.105963,0.5219 -0.388012,0.97266 -0.655827,1.44925 -1.472447,0.92733 -0.139179,-0.5504 -0.0011,-1.11291 -1.58263,1.99437 -0.218257,1.19568 -0.276247,1.75291"
             id="path9272"
             style="fill:#a80030;fill-opacity:1;stroke-width:0.527191" />
          <path
             i:knockout="Off"
             fill="#a80030"
             d="m 29.887255,292.21966 c 0.09594,-1.41867 -0.278885,-0.96951 -0.404883,-0.42914 0.146551,0.0769 0.263069,1.00062 0.404883,0.42914"
             id="path9274"
             style="fill:#a80030;fill-opacity:1;stroke-width:0.527191" />
          <path
             i:knockout="Off"
             fill="#a80030"
             d="m 21.110565,272.83007 c 0.420698,0.0749 0.908878,0.1329 0.838762,0.23354 0.461821,-0.10182 0.565677,-0.19347 -0.838762,-0.23354"
             id="path9276"
             style="fill:#a80030;fill-opacity:1;stroke-width:0.527191" />
          <path
             i:knockout="Off"
             fill="#a80030"
             d="m 21.949853,273.06361 -0.295754,0.0618 0.275721,-0.0253 0.02003,-0.0365"
             id="path9278"
             style="fill:#a80030;fill-opacity:1;stroke-width:0.527191" />
          <path
             i:knockout="Off"
             fill="#a80030"
             d="m 35.060589,292.7574 c 0.04744,1.27369 -0.37167,1.89261 -0.75072,2.98705 l -0.681661,0.33899 c -0.55724,1.08287 0.05535,0.68747 -0.343728,1.54836 -0.870922,0.77341 -2.639122,2.4193 -3.205327,2.57008 -0.413846,-0.01 0.279939,-0.48819 0.370615,-0.67533 -1.164565,0.7992 -0.93471,1.19988 -2.716092,1.68648 l -0.05167,-0.11656 c -4.391508,2.06659 -10.492172,-2.02811 -10.412041,-7.61422 -0.04639,0.35427 -0.13338,0.2657 -0.230383,0.40805 -0.226692,-2.87374 1.32747,-5.7601 3.948667,-6.94048 2.563735,-1.26843 5.569257,-0.74862 7.404411,0.96422 -1.00799,-1.32115 -3.016065,-2.7219 -5.394226,-2.59221 -2.330716,0.0379 -4.51171,1.51886 -5.239233,3.12731 -1.193563,0.75125 -1.332742,2.89745 -1.852553,3.29073 -0.700639,5.14539 1.316397,7.36751 4.728911,9.98291 0.535627,0.36165 0.150775,0.41702 0.222474,0.69221 -1.133462,-0.53036 -2.170976,-1.33169 -3.025027,-2.3128 0.453386,0.66268 0.942093,1.3069 1.574196,1.81301 -1.069673,-0.36113 -2.497836,-2.5901 -2.91379,-2.68076 1.842536,3.29916 7.474526,5.78593 10.425219,4.55177 -1.365427,0.0506 -3.09936,0.0279 -4.632433,-0.5388 -0.645811,-0.3316 -1.520423,-1.01747 -1.363848,-1.14557 4.025639,1.50301 8.183074,1.13768 11.665703,-1.65381 0.886738,-0.69063 1.854662,-1.86467 2.1346,-1.88049 -0.421226,0.63369 0.07223,0.30472 -0.25147,0.86406 0.881464,-1.42394 -0.384323,-0.57991 0.912041,-2.45883 l 0.478691,0.65899 c -0.179248,-1.183 1.468229,-2.61803 1.300583,-4.48745 0.377996,-0.57148 0.421226,0.61576 0.02056,1.93057 0.556186,-1.45873 0.147089,-1.69334 0.289427,-2.89745 0.153406,0.40489 0.357435,0.83456 0.461292,1.26212 -0.362707,-1.41024 0.370616,-2.37395 0.553025,-3.19374 -0.180305,-0.0791 -0.559351,0.62315 -0.646863,-1.04174 0.01315,-0.72329 0.201914,-0.37904 0.274139,-0.55723 -0.141291,-0.0817 -0.514013,-0.63632 -0.740177,-1.69967 0.162909,-0.25041 0.438623,0.64793 0.662153,0.68429 -0.143921,-0.84509 -0.391176,-1.48984 -0.401721,-2.13881 -0.653717,-1.36542 -0.231437,0.18232 -0.760738,-0.58624 -0.695894,-2.16887 0.576747,-0.50347 0.663207,-1.48826 1.053331,1.52622 1.653802,3.89331 1.930577,4.87336 -0.210876,-1.19514 -0.550915,-2.35338 -0.96687,-3.47367 0.321061,0.1355 -0.516121,-2.45829 0.41701,-0.7407 -0.995866,-3.66135 -4.258656,-7.08283 -7.261014,-8.6876 0.366398,0.33582 0.8298,0.75758 0.664262,0.82401 -1.494062,-0.88833 -1.231521,-0.95845 -1.445561,-1.3338 -1.215177,-0.49503 -1.296364,0.0406 -2.100333,10e-4 -2.293284,-1.21677 -2.735071,-1.08761 -4.84542,-1.84886 l 0.09594,0.44916 c -1.518841,-0.50611 -1.769783,0.19088 -3.410931,0.001 -0.09965,-0.0775 0.526137,-0.28258 1.041729,-0.3569 -1.468756,0.19407 -1.400221,-0.28995 -2.837345,0.0532 0.353745,-0.24831 0.729107,-0.41331 1.106575,-0.6242 -1.197252,0.0727 -2.859489,0.69695 -2.346531,0.12872 -1.953245,0.87197 -5.422695,2.09559 -7.369614,3.92125 l -0.06115,-0.40909 c -0.8920091,1.07071 -3.8901487,3.19794 -4.1289681,4.58604 l -0.2388174,0.0554 c -0.4634022,0.78603 -0.7644286,1.67646 -1.1324082,2.48465 -0.6067971,1.03488 -0.8899006,0.39855 -0.8034405,0.56094 -1.1940891,2.42085 -1.7882356,4.45475 -2.3001381,6.12386 0.3648175,0.54563 0.00897,3.28545 0.1465511,5.47804 -0.5988887,10.83063 7.6010541,21.34548 16.5643692,23.77267 1.313763,0.47078 3.267008,0.4539 4.928718,0.50031 -1.9601,-0.56094 -2.213152,-0.29681 -4.123696,-0.96266 -1.377552,-0.6495 -1.679106,-1.39021 -2.655465,-2.2374 l 0.386433,0.68271 c -1.913708,-0.67745 -1.112904,-0.83824 -2.670228,-1.33116 l 0.412792,-0.53826 c -0.620506,-0.0474 -1.643259,-1.04491 -1.92267,-1.59897 l -0.679023,0.0269 c -0.815039,-1.00482 -1.249972,-1.73078 -1.217814,-2.29329 l -0.219311,0.39117 c -0.248308,-0.42648 -3.0002495,-3.77362 -1.5726131,-2.99444 -0.265179,-0.24146 -0.61787,-0.39381 -1.0000839,-1.08918 l 0.2904839,-0.3316 c -0.6858698,-0.884 -1.2641995,-2.01693 -1.2199154,-2.3944 0.3663976,0.49451 0.6205037,0.5873 0.8725018,0.67218 -1.734989,-4.304 -1.8325197,-0.23671 -3.1457546,-4.38097 l 0.2773033,-0.0221 c -0.2124582,-0.32214 -0.3426744,-0.66956 -0.5134846,-1.01169 l 0.1212459,-1.20463 c -1.2483898,-1.4424 -0.3490007,-6.13917 -0.1681701,-8.7145 0.1238959,-1.047 1.0422579,-2.162 1.7397333,-3.91069 l -0.4249164,-0.0727 c 0.8129289,-1.41709 4.6403419,-5.69313 6.4138169,-5.47383 0.858795,-1.07862 -0.1708,-0.004 -0.338984,-0.27519 1.886818,-1.95219 2.479911,-1.37914 3.753078,-1.73078 1.372281,-0.81451 -1.178273,0.31843 -0.527718,-0.31052 2.373944,-0.60573 1.681741,-1.37808 4.777939,-1.68542 0.32686,0.1855 -0.757574,0.2868 -1.029605,0.52772 1.976968,-0.96793 6.257241,-0.74702 9.038704,0.53669 3.224833,1.50829 6.850332,5.96464 6.993729,10.15739 l 0.16291,0.0438 c -0.08223,1.66699 0.25516,3.59493 -0.33055,5.36524 l 0.395921,-0.83876"
             id="path9280"
             style="fill:#a80030;fill-opacity:1;stroke-width:0.527191" />
          <path
             i:knockout="Off"
             fill="#a80030"
             d="m 15.499661,298.41575 -0.111244,0.55197 c 0.518231,0.7038 0.929441,1.46611 1.590013,2.01439 -0.475529,-0.92732 -0.82822,-1.31059 -1.478775,-2.56636"
             id="path9282"
             style="fill:#a80030;fill-opacity:1;stroke-width:0.527191" />
          <path
             i:knockout="Off"
             fill="#a80030"
             d="m 16.723273,298.36831 c -0.274139,-0.30367 -0.435461,-0.6685 -0.617867,-1.0312 0.173968,0.63843 0.530353,1.18723 0.860903,1.74606 l -0.243036,-0.71486"
             id="path9284"
             style="fill:#a80030;fill-opacity:1;stroke-width:0.527191" />
          <path
             i:knockout="Off"
             fill="#a80030"
             d="m 38.382426,293.66048 -0.115448,0.29101 c -0.21193,1.50672 -0.671116,2.99761 -1.373335,4.38043 0.776027,-1.45873 1.276333,-3.05456 1.488791,-4.67144"
             id="path9286"
             style="fill:#a80030;fill-opacity:1;stroke-width:0.527191" />
          <path
             i:knockout="Off"
             fill="#a80030"
             d="m 21.267141,272.45206 c 0.531937,-0.19447 1.30849,-0.107 1.874693,-0.23512 -0.737013,0.0618 -1.470338,0.0986 -2.194173,0.19089 l 0.31948,0.0442"
             id="path9288"
             style="fill:#a80030;fill-opacity:1;stroke-width:0.527191" />
          <path
             i:knockout="Off"
             fill="#a80030"
             d="m 2.5671177,282.39595 c 0.1228398,1.13559 -0.8540509,1.57684 0.2161483,0.82719 0.5746395,-1.29374 -0.2235287,-0.35693 -0.2161483,-0.82719"
             id="path9290"
             style="fill:#a80030;fill-opacity:1;stroke-width:0.527191" />
          <path
             i:knockout="Off"
             fill="#a80030"
             d="m 1.3081834,287.65418 c 0.2472518,-0.75758 0.291536,-1.21202 0.3859045,-1.65118 -0.6816606,0.87198 -0.3142071,1.05808 -0.3859045,1.65118"
             id="path9292"
             style="fill:#a80030;fill-opacity:1;stroke-width:0.527191" />
        </g>
      </g>
      <text
         xml:space="preserve"
         id="text2160"
         style="font-style:normal;font-variant:normal;font-weight:bold;font-stretch:normal;font-size:19.7892px;line-height:1.25;font-family:Quicksand;-inkscape-font-specification:'Quicksand Bold';text-align:center;white-space:pre;shape-inside:url(#rect2162);"
         transform="matrix(0.9981134,0,0,0.99849056,-132.28474,46.796315)"
         x="107.22329"
         y="0"><tspan
           x="189.63473"
           y="78.4554"><tspan
             style="font-style:normal;font-variant:normal;font-weight:bold;font-stretch:normal;font-size:19.7892px;font-family:Quicksand;-inkscape-font-specification:'Quicksand Bold';text-align:center;text-anchor:middle">Title Text</tspan></tspan></text>
      <text
         xml:space="preserve"
         id="text3036"
         style="font-style:normal;font-variant:normal;font-weight:500;font-stretch:normal;font-size:10.4067px;line-height:1.25;font-family:Quicksand;-inkscape-font-specification:'Quicksand Medium';white-space:pre;shape-inside:url(#rect3038);"
         transform="matrix(1.2180676,0,0,1.2185278,-287.94859,-94.910844)"><tspan
           x="283.96875"
           y="220.72581"><tspan
             style="font-style:normal;font-variant:normal;font-weight:500;font-stretch:normal;font-family:Quicksand;-inkscape-font-specification:'Quicksand Medium'">Date , Time</tspan></tspan></text>
      <g
         id="g3741"
         transform="translate(70.853886,36.237182)">
        <rect
           style="fill:#a80030;fill-opacity:1;stroke:none;stroke-width:0.427784;stroke-miterlimit:4;stroke-dasharray:none;stroke-opacity:1"
           id="rect3199"
           width="61.20232"
           height="25.407824"
           x="-14.790061"
           y="183.02589"
           ry="10.467124" />
        <text
           xml:space="preserve"
           id="text3193"
           style="font-style:normal;font-variant:normal;font-weight:bold;font-stretch:normal;font-size:10.5833px;line-height:1.25;font-family:Quicksand;-inkscape-font-specification:'Quicksand Bold';white-space:pre;shape-inside:url(#rect3195);fill:#ffffff;"
           transform="matrix(0.9981134,0,0,0.99849056,16.462436,9.8412518)"><tspan
             x="-15.691406"
             y="189.8208"><tspan
               style="font-style:normal;font-variant:normal;font-weight:bold;font-stretch:normal;font-family:Quicksand;-inkscape-font-specification:'Quicksand Bold'">Room</tspan></tspan></text>
      </g>
      <text
         xml:space="preserve"
         id="text3733"
         style="font-style:normal;font-variant:normal;font-weight:bold;font-stretch:normal;font-size:10.4067px;line-height:1.25;font-family:Quicksand;-inkscape-font-specification:'Quicksand Bold';white-space:pre;shape-inside:url(#rect3735);"
         transform="matrix(1.2180676,0,0,1.2185278,-287.94859,-120.28471)"><tspan
           x="283.96875"
           y="220.72581"><tspan
             style="font-style:normal;font-variant:normal;font-weight:bold;font-stretch:normal;font-family:Quicksand;-inkscape-font-specification:'Quicksand Bold'">Speaker</tspan></tspan></text>
    </g>
    <text
       xml:space="preserve"
       id="text3743"
       style="font-weight:bold;font-size:10.5833px;line-height:1.25;font-family:sans-serif;-inkscape-font-specification:'sans-serif Bold';letter-spacing:0px;white-space:pre;shape-inside:url(#rect3745);" />
  </g>
</svg>
